('C:\\Users\\onelio\\Documenti\\Dario_py\\scripts-master-win_try\\win_try\\build\\split_rawdata\\PYZ-00.pyz',
 [('win32com',
   'c:\\python36\\lib\\site-packages\\win32com\\__init__.py',
   'PYMODULE'),
  ('win32com.server.util',
   'c:\\python36\\lib\\site-packages\\win32com\\server\\util.py',
   'PYMODULE'),
  ('win32com.server.dispatcher',
   'c:\\python36\\lib\\site-packages\\win32com\\server\\dispatcher.py',
   'PYMODULE'),
  ('win32traceutil',
   'c:\\python36\\lib\\site-packages\\win32\\lib\\win32traceutil.py',
   'PYMODULE'),
  ('win32com.util',
   'c:\\python36\\lib\\site-packages\\win32com\\util.py',
   'PYMODULE'),
  ('win32con',
   'c:\\python36\\lib\\site-packages\\win32\\lib\\win32con.py',
   'PYMODULE'),
  ('win32com.server.exception',
   'c:\\python36\\lib\\site-packages\\win32com\\server\\exception.py',
   'PYMODULE'),
  ('winerror',
   'c:\\python36\\lib\\site-packages\\win32\\lib\\winerror.py',
   'PYMODULE'),
  ('win32com.server.policy',
   'c:\\python36\\lib\\site-packages\\win32com\\server\\policy.py',
   'PYMODULE'),
  ('win32com.client',
   'c:\\python36\\lib\\site-packages\\win32com\\client\\__init__.py',
   'PYMODULE'),
  ('win32com.client.makepy',
   'c:\\python36\\lib\\site-packages\\win32com\\client\\makepy.py',
   'PYMODULE'),
  ('pywin.dialogs.status',
   'c:\\python36\\lib\\site-packages\\Pythonwin\\pywin\\dialogs\\status.py',
   'PYMODULE'),
  ('pywin.mfc.thread',
   'c:\\python36\\lib\\site-packages\\Pythonwin\\pywin\\mfc\\thread.py',
   'PYMODULE'),
  ('pywin.mfc.object',
   'c:\\python36\\lib\\site-packages\\Pythonwin\\pywin\\mfc\\object.py',
   'PYMODULE'),
  ('pywin.mfc.dialog',
   'c:\\python36\\lib\\site-packages\\Pythonwin\\pywin\\mfc\\dialog.py',
   'PYMODULE'),
  ('pywin.mfc.window',
   'c:\\python36\\lib\\site-packages\\Pythonwin\\pywin\\mfc\\window.py',
   'PYMODULE'),
  ('pywin.mfc',
   'c:\\python36\\lib\\site-packages\\Pythonwin\\pywin\\mfc\\__init__.py',
   'PYMODULE'),
  ('pywin.dialogs',
   'c:\\python36\\lib\\site-packages\\Pythonwin\\pywin\\dialogs\\__init__.py',
   'PYMODULE'),
  ('pywin',
   'c:\\python36\\lib\\site-packages\\Pythonwin\\pywin\\__init__.py',
   'PYMODULE'),
  ('win32com.client.gencache',
   'c:\\python36\\lib\\site-packages\\win32com\\client\\gencache.py',
   'PYMODULE'),
  ('win32com.client.selecttlb',
   'c:\\python36\\lib\\site-packages\\win32com\\client\\selecttlb.py',
   'PYMODULE'),
  ('pywin.dialogs.list',
   'c:\\python36\\lib\\site-packages\\Pythonwin\\pywin\\dialogs\\list.py',
   'PYMODULE'),
  ('commctrl',
   'c:\\python36\\lib\\site-packages\\win32\\lib\\commctrl.py',
   'PYMODULE'),
  ('win32com.client.genpy',
   'c:\\python36\\lib\\site-packages\\win32com\\client\\genpy.py',
   'PYMODULE'),
  ('win32com.client.CLSIDToClass',
   'c:\\python36\\lib\\site-packages\\win32com\\client\\CLSIDToClass.py',
   'PYMODULE'),
  ('win32com.client.dynamic',
   'c:\\python36\\lib\\site-packages\\win32com\\client\\dynamic.py',
   'PYMODULE'),
  ('win32com.client.build',
   'c:\\python36\\lib\\site-packages\\win32com\\client\\build.py',
   'PYMODULE'),
  ('pywintypes',
   'c:\\python36\\lib\\site-packages\\win32\\lib\\pywintypes.py',
   'PYMODULE'),
  ('distutils.sysconfig',
   'c:\\python36\\lib\\distutils\\sysconfig.py',
   'PYMODULE'),
  ('distutils', 'c:\\python36\\lib\\distutils\\__init__.py', 'PYMODULE'),
  ('distutils.archive_util',
   'c:\\python36\\lib\\distutils\\archive_util.py',
   'PYMODULE'),
  ('distutils.dir_util',
   'c:\\python36\\lib\\distutils\\dir_util.py',
   'PYMODULE'),
  ('distutils.file_util',
   'c:\\python36\\lib\\distutils\\file_util.py',
   'PYMODULE'),
  ('distutils.dep_util',
   'c:\\python36\\lib\\distutils\\dep_util.py',
   'PYMODULE'),
  ('distutils.spawn', 'c:\\python36\\lib\\distutils\\spawn.py', 'PYMODULE'),
  ('distutils.debug', 'c:\\python36\\lib\\distutils\\debug.py', 'PYMODULE'),
  ('distutils.ccompiler',
   'c:\\python36\\lib\\distutils\\ccompiler.py',
   'PYMODULE'),
  ('distutils.fancy_getopt',
   'c:\\python36\\lib\\distutils\\fancy_getopt.py',
   'PYMODULE'),
  ('distutils.util', 'c:\\python36\\lib\\distutils\\util.py', 'PYMODULE'),
  ('distutils.filelist',
   'c:\\python36\\lib\\distutils\\filelist.py',
   'PYMODULE'),
  ('lib2to3.refactor', 'c:\\python36\\lib\\lib2to3\\refactor.py', 'PYMODULE'),
  ('multiprocessing',
   'c:\\python36\\lib\\multiprocessing\\__init__.py',
   'PYMODULE'),
  ('multiprocessing.spawn',
   'c:\\python36\\lib\\multiprocessing\\spawn.py',
   'PYMODULE'),
  ('runpy', 'c:\\python36\\lib\\runpy.py', 'PYMODULE'),
  ('multiprocessing.semaphore_tracker',
   'c:\\python36\\lib\\multiprocessing\\semaphore_tracker.py',
   'PYMODULE'),
  ('multiprocessing.pool',
   'c:\\python36\\lib\\multiprocessing\\pool.py',
   'PYMODULE'),
  ('multiprocessing.dummy',
   'c:\\python36\\lib\\multiprocessing\\dummy\\__init__.py',
   'PYMODULE'),
  ('multiprocessing.dummy.connection',
   'c:\\python36\\lib\\multiprocessing\\dummy\\connection.py',
   'PYMODULE'),
  ('queue', 'c:\\python36\\lib\\queue.py', 'PYMODULE'),
  ('multiprocessing.reduction',
   'c:\\python36\\lib\\multiprocessing\\reduction.py',
   'PYMODULE'),
  ('multiprocessing.resource_sharer',
   'c:\\python36\\lib\\multiprocessing\\resource_sharer.py',
   'PYMODULE'),
  ('multiprocessing.connection',
   'c:\\python36\\lib\\multiprocessing\\connection.py',
   'PYMODULE'),
  ('xmlrpc.client', 'c:\\python36\\lib\\xmlrpc\\client.py', 'PYMODULE'),
  ('xmlrpc', 'c:\\python36\\lib\\xmlrpc\\__init__.py', 'PYMODULE'),
  ('decimal', 'c:\\python36\\lib\\decimal.py', 'PYMODULE'),
  ('_pydecimal', 'c:\\python36\\lib\\_pydecimal.py', 'PYMODULE'),
  ('numbers', 'c:\\python36\\lib\\numbers.py', 'PYMODULE'),
  ('hmac', 'c:\\python36\\lib\\hmac.py', 'PYMODULE'),
  ('multiprocessing.context',
   'c:\\python36\\lib\\multiprocessing\\context.py',
   'PYMODULE'),
  ('multiprocessing.popen_spawn_win32',
   'c:\\python36\\lib\\multiprocessing\\popen_spawn_win32.py',
   'PYMODULE'),
  ('multiprocessing.popen_forkserver',
   'c:\\python36\\lib\\multiprocessing\\popen_forkserver.py',
   'PYMODULE'),
  ('multiprocessing.popen_spawn_posix',
   'c:\\python36\\lib\\multiprocessing\\popen_spawn_posix.py',
   'PYMODULE'),
  ('multiprocessing.popen_fork',
   'c:\\python36\\lib\\multiprocessing\\popen_fork.py',
   'PYMODULE'),
  ('multiprocessing.forkserver',
   'c:\\python36\\lib\\multiprocessing\\forkserver.py',
   'PYMODULE'),
  ('multiprocessing.sharedctypes',
   'c:\\python36\\lib\\multiprocessing\\sharedctypes.py',
   'PYMODULE'),
  ('multiprocessing.heap',
   'c:\\python36\\lib\\multiprocessing\\heap.py',
   'PYMODULE'),
  ('ctypes', 'c:\\python36\\lib\\ctypes\\__init__.py', 'PYMODULE'),
  ('ctypes.wintypes', 'c:\\python36\\lib\\ctypes\\wintypes.py', 'PYMODULE'),
  ('ctypes._endian', 'c:\\python36\\lib\\ctypes\\_endian.py', 'PYMODULE'),
  ('multiprocessing.queues',
   'c:\\python36\\lib\\multiprocessing\\queues.py',
   'PYMODULE'),
  ('multiprocessing.synchronize',
   'c:\\python36\\lib\\multiprocessing\\synchronize.py',
   'PYMODULE'),
  ('multiprocessing.managers',
   'c:\\python36\\lib\\multiprocessing\\managers.py',
   'PYMODULE'),
  ('multiprocessing.util',
   'c:\\python36\\lib\\multiprocessing\\util.py',
   'PYMODULE'),
  ('multiprocessing.process',
   'c:\\python36\\lib\\multiprocessing\\process.py',
   'PYMODULE'),
  ('lib2to3.btm_matcher',
   'c:\\python36\\lib\\lib2to3\\btm_matcher.py',
   'PYMODULE'),
  ('lib2to3.btm_utils', 'c:\\python36\\lib\\lib2to3\\btm_utils.py', 'PYMODULE'),
  ('lib2to3.pgen2.grammar',
   'c:\\python36\\lib\\lib2to3\\pgen2\\grammar.py',
   'PYMODULE'),
  ('lib2to3.pygram', 'c:\\python36\\lib\\lib2to3\\pygram.py', 'PYMODULE'),
  ('lib2to3.pytree', 'c:\\python36\\lib\\lib2to3\\pytree.py', 'PYMODULE'),
  ('lib2to3', 'c:\\python36\\lib\\lib2to3\\__init__.py', 'PYMODULE'),
  ('lib2to3.patcomp', 'c:\\python36\\lib\\lib2to3\\patcomp.py', 'PYMODULE'),
  ('lib2to3.pgen2.parse',
   'c:\\python36\\lib\\lib2to3\\pgen2\\parse.py',
   'PYMODULE'),
  ('lib2to3.pgen2.literals',
   'c:\\python36\\lib\\lib2to3\\pgen2\\literals.py',
   'PYMODULE'),
  ('lib2to3.fixer_util',
   'c:\\python36\\lib\\lib2to3\\fixer_util.py',
   'PYMODULE'),
  ('lib2to3.pgen2.token',
   'c:\\python36\\lib\\lib2to3\\pgen2\\token.py',
   'PYMODULE'),
  ('lib2to3.pgen2.tokenize',
   'c:\\python36\\lib\\lib2to3\\pgen2\\tokenize.py',
   'PYMODULE'),
  ('lib2to3.pgen2.driver',
   'c:\\python36\\lib\\lib2to3\\pgen2\\driver.py',
   'PYMODULE'),
  ('lib2to3.pgen2.pgen',
   'c:\\python36\\lib\\lib2to3\\pgen2\\pgen.py',
   'PYMODULE'),
  ('lib2to3.pgen2',
   'c:\\python36\\lib\\lib2to3\\pgen2\\__init__.py',
   'PYMODULE'),
  ('distutils.log', 'c:\\python36\\lib\\distutils\\log.py', 'PYMODULE'),
  ('distutils.text_file',
   'c:\\python36\\lib\\distutils\\text_file.py',
   'PYMODULE'),
  ('_osx_support', 'c:\\python36\\lib\\_osx_support.py', 'PYMODULE'),
  ('distutils.errors', 'c:\\python36\\lib\\distutils\\errors.py', 'PYMODULE'),
  ('win32com.server',
   'c:\\python36\\lib\\site-packages\\win32com\\server\\__init__.py',
   'PYMODULE'),
  ('win32com.universal',
   'c:\\python36\\lib\\site-packages\\win32com\\universal.py',
   'PYMODULE'),
  ('win32com.client.util',
   'c:\\python36\\lib\\site-packages\\win32com\\client\\util.py',
   'PYMODULE'),
  ('imp', 'c:\\python36\\lib\\imp.py', 'PYMODULE'),
  ('pythoncom', 'c:\\python36\\lib\\site-packages\\pythoncom.py', 'PYMODULE'),
  ('pkg_resources',
   'c:\\python36\\lib\\site-packages\\pkg_resources\\__init__.py',
   'PYMODULE'),
  ('pkg_resources._vendor',
   'c:\\python36\\lib\\site-packages\\pkg_resources\\_vendor\\__init__.py',
   'PYMODULE'),
  ('pkg_resources._vendor.packaging.__about__',
   'c:\\python36\\lib\\site-packages\\pkg_resources\\_vendor\\packaging\\__about__.py',
   'PYMODULE'),
  ('pkg_resources._vendor.six',
   'c:\\python36\\lib\\site-packages\\pkg_resources\\_vendor\\six.py',
   'PYMODULE'),
  ('pkg_resources._vendor.packaging.specifiers',
   'c:\\python36\\lib\\site-packages\\pkg_resources\\_vendor\\packaging\\specifiers.py',
   'PYMODULE'),
  ('pkg_resources._vendor.packaging._structures',
   'c:\\python36\\lib\\site-packages\\pkg_resources\\_vendor\\packaging\\_structures.py',
   'PYMODULE'),
  ('pkg_resources._vendor.appdirs',
   'c:\\python36\\lib\\site-packages\\pkg_resources\\_vendor\\appdirs.py',
   'PYMODULE'),
  ('win32com.shell.shellcon',
   'c:\\python36\\lib\\site-packages\\win32comext\\shell\\shellcon.py',
   'PYMODULE'),
  ('win32com.shell',
   'c:\\python36\\lib\\site-packages\\win32comext\\shell\\__init__.py',
   'PYMODULE'),
  ('pkg_resources._vendor.packaging',
   'c:\\python36\\lib\\site-packages\\pkg_resources\\_vendor\\packaging\\__init__.py',
   'PYMODULE'),
  ('pkg_resources._vendor.packaging.utils',
   'c:\\python36\\lib\\site-packages\\pkg_resources\\_vendor\\packaging\\utils.py',
   'PYMODULE'),
  ('pkg_resources._vendor.pyparsing',
   'c:\\python36\\lib\\site-packages\\pkg_resources\\_vendor\\pyparsing.py',
   'PYMODULE'),
  ('uuid', 'c:\\python36\\lib\\uuid.py', 'PYMODULE'),
  ('ctypes.util', 'c:\\python36\\lib\\ctypes\\util.py', 'PYMODULE'),
  ('ctypes.macholib.dyld',
   'c:\\python36\\lib\\ctypes\\macholib\\dyld.py',
   'PYMODULE'),
  ('ctypes.macholib',
   'c:\\python36\\lib\\ctypes\\macholib\\__init__.py',
   'PYMODULE'),
  ('ctypes.macholib.dylib',
   'c:\\python36\\lib\\ctypes\\macholib\\dylib.py',
   'PYMODULE'),
  ('ctypes.macholib.framework',
   'c:\\python36\\lib\\ctypes\\macholib\\framework.py',
   'PYMODULE'),
  ('netbios',
   'c:\\python36\\lib\\site-packages\\win32\\lib\\netbios.py',
   'PYMODULE'),
  ('pkg_resources._vendor.packaging.version',
   'c:\\python36\\lib\\site-packages\\pkg_resources\\_vendor\\packaging\\version.py',
   'PYMODULE'),
  ('pkg_resources._vendor.packaging.requirements',
   'c:\\python36\\lib\\site-packages\\pkg_resources\\_vendor\\packaging\\requirements.py',
   'PYMODULE'),
  ('pkg_resources._vendor.packaging.markers',
   'c:\\python36\\lib\\site-packages\\pkg_resources\\_vendor\\packaging\\markers.py',
   'PYMODULE'),
  ('pkg_resources._vendor.packaging._compat',
   'c:\\python36\\lib\\site-packages\\pkg_resources\\_vendor\\packaging\\_compat.py',
   'PYMODULE'),
  ('sysconfig', 'c:\\python36\\lib\\sysconfig.py', 'PYMODULE'),
  ('pkg_resources.py31compat',
   'c:\\python36\\lib\\site-packages\\pkg_resources\\py31compat.py',
   'PYMODULE'),
  ('pkg_resources.extern',
   'c:\\python36\\lib\\site-packages\\pkg_resources\\extern\\__init__.py',
   'PYMODULE'),
  ('ntpath', 'c:\\python36\\lib\\ntpath.py', 'PYMODULE'),
  ('_strptime', 'c:\\python36\\lib\\_strptime.py', 'PYMODULE'),
  ('datetime', 'c:\\python36\\lib\\datetime.py', 'PYMODULE'),
  ('_compat_pickle', 'c:\\python36\\lib\\_compat_pickle.py', 'PYMODULE'),
  ('pickle', 'c:\\python36\\lib\\pickle.py', 'PYMODULE'),
  ('tracemalloc', 'c:\\python36\\lib\\tracemalloc.py', 'PYMODULE'),
  ('stringprep', 'c:\\python36\\lib\\stringprep.py', 'PYMODULE'),
  ('__future__', 'c:\\python36\\lib\\__future__.py', 'PYMODULE'),
  ('difflib', 'c:\\python36\\lib\\difflib.py', 'PYMODULE'),
  ('ast', 'c:\\python36\\lib\\ast.py', 'PYMODULE'),
  ('inspect', 'c:\\python36\\lib\\inspect.py', 'PYMODULE'),
  ('cmd', 'c:\\python36\\lib\\cmd.py', 'PYMODULE'),
  ('bdb', 'c:\\python36\\lib\\bdb.py', 'PYMODULE'),
  ('opcode', 'c:\\python36\\lib\\opcode.py', 'PYMODULE'),
  ('dis', 'c:\\python36\\lib\\dis.py', 'PYMODULE'),
  ('codeop', 'c:\\python36\\lib\\codeop.py', 'PYMODULE'),
  ('code', 'c:\\python36\\lib\\code.py', 'PYMODULE'),
  ('glob', 'c:\\python36\\lib\\glob.py', 'PYMODULE'),
  ('shlex', 'c:\\python36\\lib\\shlex.py', 'PYMODULE'),
  ('importlib._bootstrap',
   'c:\\python36\\lib\\importlib\\_bootstrap.py',
   'PYMODULE'),
  ('importlib._bootstrap_external',
   'c:\\python36\\lib\\importlib\\_bootstrap_external.py',
   'PYMODULE'),
  ('importlib.machinery',
   'c:\\python36\\lib\\importlib\\machinery.py',
   'PYMODULE'),
  ('importlib.util', 'c:\\python36\\lib\\importlib\\util.py', 'PYMODULE'),
  ('importlib.abc', 'c:\\python36\\lib\\importlib\\abc.py', 'PYMODULE'),
  ('importlib', 'c:\\python36\\lib\\importlib\\__init__.py', 'PYMODULE'),
  ('pkgutil', 'c:\\python36\\lib\\pkgutil.py', 'PYMODULE'),
  ('xml', 'c:\\python36\\lib\\xml\\__init__.py', 'PYMODULE'),
  ('xml.sax.expatreader',
   'c:\\python36\\lib\\xml\\sax\\expatreader.py',
   'PYMODULE'),
  ('xml.sax.saxutils', 'c:\\python36\\lib\\xml\\sax\\saxutils.py', 'PYMODULE'),
  ('urllib.request', 'c:\\python36\\lib\\urllib\\request.py', 'PYMODULE'),
  ('getpass', 'c:\\python36\\lib\\getpass.py', 'PYMODULE'),
  ('nturl2path', 'c:\\python36\\lib\\nturl2path.py', 'PYMODULE'),
  ('ftplib', 'c:\\python36\\lib\\ftplib.py', 'PYMODULE'),
  ('netrc', 'c:\\python36\\lib\\netrc.py', 'PYMODULE'),
  ('http.cookiejar', 'c:\\python36\\lib\\http\\cookiejar.py', 'PYMODULE'),
  ('urllib.response', 'c:\\python36\\lib\\urllib\\response.py', 'PYMODULE'),
  ('urllib.error', 'c:\\python36\\lib\\urllib\\error.py', 'PYMODULE'),
  ('xml.sax', 'c:\\python36\\lib\\xml\\sax\\__init__.py', 'PYMODULE'),
  ('xml.sax.handler', 'c:\\python36\\lib\\xml\\sax\\handler.py', 'PYMODULE'),
  ('xml.sax._exceptions',
   'c:\\python36\\lib\\xml\\sax\\_exceptions.py',
   'PYMODULE'),
  ('xml.sax.xmlreader',
   'c:\\python36\\lib\\xml\\sax\\xmlreader.py',
   'PYMODULE'),
  ('xml.parsers', 'c:\\python36\\lib\\xml\\parsers\\__init__.py', 'PYMODULE'),
  ('xml.parsers.expat',
   'c:\\python36\\lib\\xml\\parsers\\expat.py',
   'PYMODULE'),
  ('plistlib', 'c:\\python36\\lib\\plistlib.py', 'PYMODULE'),
  ('platform', 'c:\\python36\\lib\\platform.py', 'PYMODULE'),
  ('token', 'c:\\python36\\lib\\token.py', 'PYMODULE'),
  ('tokenize', 'c:\\python36\\lib\\tokenize.py', 'PYMODULE'),
  ('urllib.parse', 'c:\\python36\\lib\\urllib\\parse.py', 'PYMODULE'),
  ('tempfile', 'c:\\python36\\lib\\tempfile.py', 'PYMODULE'),
  ('subprocess', 'c:\\python36\\lib\\subprocess.py', 'PYMODULE'),
  ('tty', 'c:\\python36\\lib\\tty.py', 'PYMODULE'),
  ('pydoc_data', 'c:\\python36\\lib\\pydoc_data\\__init__.py', 'PYMODULE'),
  ('pydoc_data.topics', 'c:\\python36\\lib\\pydoc_data\\topics.py', 'PYMODULE'),
  ('textwrap', 'c:\\python36\\lib\\textwrap.py', 'PYMODULE'),
  ('html.entities', 'c:\\python36\\lib\\html\\entities.py', 'PYMODULE'),
  ('html', 'c:\\python36\\lib\\html\\__init__.py', 'PYMODULE'),
  ('ipaddress', 'c:\\python36\\lib\\ipaddress.py', 'PYMODULE'),
  ('ssl', 'c:\\python36\\lib\\ssl.py', 'PYMODULE'),
  ('http.client', 'c:\\python36\\lib\\http\\client.py', 'PYMODULE'),
  ('mimetypes', 'c:\\python36\\lib\\mimetypes.py', 'PYMODULE'),
  ('socketserver', 'c:\\python36\\lib\\socketserver.py', 'PYMODULE'),
  ('http', 'c:\\python36\\lib\\http\\__init__.py', 'PYMODULE'),
  ('http.server', 'c:\\python36\\lib\\http\\server.py', 'PYMODULE'),
  ('optparse', 'c:\\python36\\lib\\optparse.py', 'PYMODULE'),
  ('uu', 'c:\\python36\\lib\\uu.py', 'PYMODULE'),
  ('quopri', 'c:\\python36\\lib\\quopri.py', 'PYMODULE'),
  ('email.feedparser', 'c:\\python36\\lib\\email\\feedparser.py', 'PYMODULE'),
  ('email.parser', 'c:\\python36\\lib\\email\\parser.py', 'PYMODULE'),
  ('email', 'c:\\python36\\lib\\email\\__init__.py', 'PYMODULE'),
  ('calendar', 'c:\\python36\\lib\\calendar.py', 'PYMODULE'),
  ('email._parseaddr', 'c:\\python36\\lib\\email\\_parseaddr.py', 'PYMODULE'),
  ('email.utils', 'c:\\python36\\lib\\email\\utils.py', 'PYMODULE'),
  ('email.errors', 'c:\\python36\\lib\\email\\errors.py', 'PYMODULE'),
  ('email.header', 'c:\\python36\\lib\\email\\header.py', 'PYMODULE'),
  ('email._policybase', 'c:\\python36\\lib\\email\\_policybase.py', 'PYMODULE'),
  ('email.base64mime', 'c:\\python36\\lib\\email\\base64mime.py', 'PYMODULE'),
  ('email.encoders', 'c:\\python36\\lib\\email\\encoders.py', 'PYMODULE'),
  ('email.charset', 'c:\\python36\\lib\\email\\charset.py', 'PYMODULE'),
  ('base64', 'c:\\python36\\lib\\base64.py', 'PYMODULE'),
  ('email._encoded_words',
   'c:\\python36\\lib\\email\\_encoded_words.py',
   'PYMODULE'),
  ('hashlib', 'c:\\python36\\lib\\hashlib.py', 'PYMODULE'),
  ('bisect', 'c:\\python36\\lib\\bisect.py', 'PYMODULE'),
  ('random', 'c:\\python36\\lib\\random.py', 'PYMODULE'),
  ('email.generator', 'c:\\python36\\lib\\email\\generator.py', 'PYMODULE'),
  ('email.iterators', 'c:\\python36\\lib\\email\\iterators.py', 'PYMODULE'),
  ('urllib', 'c:\\python36\\lib\\urllib\\__init__.py', 'PYMODULE'),
  ('email._header_value_parser',
   'c:\\python36\\lib\\email\\_header_value_parser.py',
   'PYMODULE'),
  ('email.headerregistry',
   'c:\\python36\\lib\\email\\headerregistry.py',
   'PYMODULE'),
  ('email.quoprimime', 'c:\\python36\\lib\\email\\quoprimime.py', 'PYMODULE'),
  ('email.contentmanager',
   'c:\\python36\\lib\\email\\contentmanager.py',
   'PYMODULE'),
  ('email.policy', 'c:\\python36\\lib\\email\\policy.py', 'PYMODULE'),
  ('email.message', 'c:\\python36\\lib\\email\\message.py', 'PYMODULE'),
  ('bz2', 'c:\\python36\\lib\\bz2.py', 'PYMODULE'),
  ('lzma', 'c:\\python36\\lib\\lzma.py', 'PYMODULE'),
  ('_compression', 'c:\\python36\\lib\\_compression.py', 'PYMODULE'),
  ('gzip', 'c:\\python36\\lib\\gzip.py', 'PYMODULE'),
  ('tarfile', 'c:\\python36\\lib\\tarfile.py', 'PYMODULE'),
  ('_dummy_thread', 'c:\\python36\\lib\\_dummy_thread.py', 'PYMODULE'),
  ('dummy_threading', 'c:\\python36\\lib\\dummy_threading.py', 'PYMODULE'),
  ('py_compile', 'c:\\python36\\lib\\py_compile.py', 'PYMODULE'),
  ('zipfile', 'c:\\python36\\lib\\zipfile.py', 'PYMODULE'),
  ('shutil', 'c:\\python36\\lib\\shutil.py', 'PYMODULE'),
  ('selectors', 'c:\\python36\\lib\\selectors.py', 'PYMODULE'),
  ('socket', 'c:\\python36\\lib\\socket.py', 'PYMODULE'),
  ('webbrowser', 'c:\\python36\\lib\\webbrowser.py', 'PYMODULE'),
  ('pydoc', 'c:\\python36\\lib\\pydoc.py', 'PYMODULE'),
  ('struct', 'c:\\python36\\lib\\struct.py', 'PYMODULE'),
  ('gettext', 'c:\\python36\\lib\\gettext.py', 'PYMODULE'),
  ('getopt', 'c:\\python36\\lib\\getopt.py', 'PYMODULE'),
  ('pdb', 'c:\\python36\\lib\\pdb.py', 'PYMODULE'),
  ('unittest.util', 'c:\\python36\\lib\\unittest\\util.py', 'PYMODULE'),
  ('unittest.result', 'c:\\python36\\lib\\unittest\\result.py', 'PYMODULE'),
  ('string', 'c:\\python36\\lib\\string.py', 'PYMODULE'),
  ('_threading_local', 'c:\\python36\\lib\\_threading_local.py', 'PYMODULE'),
  ('threading', 'c:\\python36\\lib\\threading.py', 'PYMODULE'),
  ('logging', 'c:\\python36\\lib\\logging\\__init__.py', 'PYMODULE'),
  ('contextlib', 'c:\\python36\\lib\\contextlib.py', 'PYMODULE'),
  ('unittest.case', 'c:\\python36\\lib\\unittest\\case.py', 'PYMODULE'),
  ('unittest.suite', 'c:\\python36\\lib\\unittest\\suite.py', 'PYMODULE'),
  ('stat', 'c:\\python36\\lib\\stat.py', 'PYMODULE'),
  ('genericpath', 'c:\\python36\\lib\\genericpath.py', 'PYMODULE'),
  ('posixpath', 'c:\\python36\\lib\\posixpath.py', 'PYMODULE'),
  ('fnmatch', 'c:\\python36\\lib\\fnmatch.py', 'PYMODULE'),
  ('unittest.loader', 'c:\\python36\\lib\\unittest\\loader.py', 'PYMODULE'),
  ('unittest.runner', 'c:\\python36\\lib\\unittest\\runner.py', 'PYMODULE'),
  ('unittest.main', 'c:\\python36\\lib\\unittest\\main.py', 'PYMODULE'),
  ('signal', 'c:\\python36\\lib\\signal.py', 'PYMODULE'),
  ('unittest.signals', 'c:\\python36\\lib\\unittest\\signals.py', 'PYMODULE'),
  ('unittest', 'c:\\python36\\lib\\unittest\\__init__.py', 'PYMODULE'),
  ('doctest', 'c:\\python36\\lib\\doctest.py', 'PYMODULE'),
  ('copy', 'c:\\python36\\lib\\copy.py', 'PYMODULE'),
  ('pprint', 'c:\\python36\\lib\\pprint.py', 'PYMODULE'),
  ('pandas',
   'C:\\Users\\onelio\\AppData\\Roaming\\Python\\Python36\\site-packages\\pandas\\__init__.py',
   'PYMODULE'),
  ('pandas._libs.tslibs',
   'C:\\Users\\onelio\\AppData\\Roaming\\Python\\Python36\\site-packages\\pandas\\_libs\\tslibs\\__init__.py',
   'PYMODULE'),
  ('pandas._version',
   'C:\\Users\\onelio\\AppData\\Roaming\\Python\\Python36\\site-packages\\pandas\\_version.py',
   'PYMODULE'),
  ('json', 'c:\\python36\\lib\\json\\__init__.py', 'PYMODULE'),
  ('json.encoder', 'c:\\python36\\lib\\json\\encoder.py', 'PYMODULE'),
  ('json.decoder', 'c:\\python36\\lib\\json\\decoder.py', 'PYMODULE'),
  ('json.scanner', 'c:\\python36\\lib\\json\\scanner.py', 'PYMODULE'),
  ('pandas.arrays',
   'C:\\Users\\onelio\\AppData\\Roaming\\Python\\Python36\\site-packages\\pandas\\arrays\\__init__.py',
   'PYMODULE'),
  ('pandas.core.arrays',
   'C:\\Users\\onelio\\AppData\\Roaming\\Python\\Python36\\site-packages\\pandas\\core\\arrays\\__init__.py',
   'PYMODULE'),
  ('pandas.core.arrays.timedeltas',
   'C:\\Users\\onelio\\AppData\\Roaming\\Python\\Python36\\site-packages\\pandas\\core\\arrays\\timedeltas.py',
   'PYMODULE'),
  ('pandas.io.formats.format',
   'C:\\Users\\onelio\\AppData\\Roaming\\Python\\Python36\\site-packages\\pandas\\io\\formats\\format.py',
   'PYMODULE'),
  ('pandas.io.formats.html',
   'C:\\Users\\onelio\\AppData\\Roaming\\Python\\Python36\\site-packages\\pandas\\io\\formats\\html.py',
   'PYMODULE'),
  ('pandas.io.formats.latex',
   'C:\\Users\\onelio\\AppData\\Roaming\\Python\\Python36\\site-packages\\pandas\\io\\formats\\latex.py',
   'PYMODULE'),
  ('pandas.core.reshape.concat',
   'C:\\Users\\onelio\\AppData\\Roaming\\Python\\Python36\\site-packages\\pandas\\core\\reshape\\concat.py',
   'PYMODULE'),
  ('pandas.core.internals',
   'C:\\Users\\onelio\\AppData\\Roaming\\Python\\Python36\\site-packages\\pandas\\core\\internals\\__init__.py',
   'PYMODULE'),
  ('pandas.core.internals.managers',
   'C:\\Users\\onelio\\AppData\\Roaming\\Python\\Python36\\site-packages\\pandas\\core\\internals\\managers.py',
   'PYMODULE'),
  ('pandas.core.internals.concat',
   'C:\\Users\\onelio\\AppData\\Roaming\\Python\\Python36\\site-packages\\pandas\\core\\internals\\concat.py',
   'PYMODULE'),
  ('pandas.core.indexers',
   'C:\\Users\\onelio\\AppData\\Roaming\\Python\\Python36\\site-packages\\pandas\\core\\indexers.py',
   'PYMODULE'),
  ('pandas.core.dtypes.cast',
   'C:\\Users\\onelio\\AppData\\Roaming\\Python\\Python36\\site-packages\\pandas\\core\\dtypes\\cast.py',
   'PYMODULE'),
  ('pandas.core.tools.datetimes',
   'C:\\Users\\onelio\\AppData\\Roaming\\Python\\Python36\\site-packages\\pandas\\core\\tools\\datetimes.py',
   'PYMODULE'),
  ('pandas.core.tools',
   'C:\\Users\\onelio\\AppData\\Roaming\\Python\\Python36\\site-packages\\pandas\\core\\tools\\__init__.py',
   'PYMODULE'),
  ('pandas._typing',
   'C:\\Users\\onelio\\AppData\\Roaming\\Python\\Python36\\site-packages\\pandas\\_typing.py',
   'PYMODULE'),
  ('pandas.core.tools.timedeltas',
   'C:\\Users\\onelio\\AppData\\Roaming\\Python\\Python36\\site-packages\\pandas\\core\\tools\\timedeltas.py',
   'PYMODULE'),
  ('pandas.core.dtypes.inference',
   'C:\\Users\\onelio\\AppData\\Roaming\\Python\\Python36\\site-packages\\pandas\\core\\dtypes\\inference.py',
   'PYMODULE'),
  ('pandas.core.dtypes',
   'C:\\Users\\onelio\\AppData\\Roaming\\Python\\Python36\\site-packages\\pandas\\core\\dtypes\\__init__.py',
   'PYMODULE'),
  ('pandas.util._validators',
   'C:\\Users\\onelio\\AppData\\Roaming\\Python\\Python36\\site-packages\\pandas\\util\\_validators.py',
   'PYMODULE'),
  ('pandas.util',
   'C:\\Users\\onelio\\AppData\\Roaming\\Python\\Python36\\site-packages\\pandas\\util\\__init__.py',
   'PYMODULE'),
  ('pandas.core.util.hashing',
   'C:\\Users\\onelio\\AppData\\Roaming\\Python\\Python36\\site-packages\\pandas\\core\\util\\hashing.py',
   'PYMODULE'),
  ('pandas.core.util',
   'C:\\Users\\onelio\\AppData\\Roaming\\Python\\Python36\\site-packages\\pandas\\core\\util\\__init__.py',
   'PYMODULE'),
  ('pandas.core.missing',
   'C:\\Users\\onelio\\AppData\\Roaming\\Python\\Python36\\site-packages\\pandas\\core\\missing.py',
   'PYMODULE'),
  ('pandas.compat._optional',
   'C:\\Users\\onelio\\AppData\\Roaming\\Python\\Python36\\site-packages\\pandas\\compat\\_optional.py',
   'PYMODULE'),
  ('distutils.version', 'c:\\python36\\lib\\distutils\\version.py', 'PYMODULE'),
  ('pandas.core.internals.blocks',
   'C:\\Users\\onelio\\AppData\\Roaming\\Python\\Python36\\site-packages\\pandas\\core\\internals\\blocks.py',
   'PYMODULE'),
  ('pandas.core.computation.expressions',
   'C:\\Users\\onelio\\AppData\\Roaming\\Python\\Python36\\site-packages\\pandas\\core\\computation\\expressions.py',
   'PYMODULE'),
  ('pandas.core.computation',
   'C:\\Users\\onelio\\AppData\\Roaming\\Python\\Python36\\site-packages\\pandas\\core\\computation\\__init__.py',
   'PYMODULE'),
  ('pandas.core.computation.check',
   'C:\\Users\\onelio\\AppData\\Roaming\\Python\\Python36\\site-packages\\pandas\\core\\computation\\check.py',
   'PYMODULE'),
  ('pandas.core.nanops',
   'C:\\Users\\onelio\\AppData\\Roaming\\Python\\Python36\\site-packages\\pandas\\core\\nanops.py',
   'PYMODULE'),
  ('pandas.core.internals.arrays',
   'C:\\Users\\onelio\\AppData\\Roaming\\Python\\Python36\\site-packages\\pandas\\core\\internals\\arrays.py',
   'PYMODULE'),
  ('pandas.core.indexes.base',
   'C:\\Users\\onelio\\AppData\\Roaming\\Python\\Python36\\site-packages\\pandas\\core\\indexes\\base.py',
   'PYMODULE'),
  ('pandas.core.reshape.merge',
   'C:\\Users\\onelio\\AppData\\Roaming\\Python\\Python36\\site-packages\\pandas\\core\\reshape\\merge.py',
   'PYMODULE'),
  ('pandas.core.frame',
   'C:\\Users\\onelio\\AppData\\Roaming\\Python\\Python36\\site-packages\\pandas\\core\\frame.py',
   'PYMODULE'),
  ('pandas.core.apply',
   'C:\\Users\\onelio\\AppData\\Roaming\\Python\\Python36\\site-packages\\pandas\\core\\apply.py',
   'PYMODULE'),
  ('pandas.core.reshape.melt',
   'C:\\Users\\onelio\\AppData\\Roaming\\Python\\Python36\\site-packages\\pandas\\core\\reshape\\melt.py',
   'PYMODULE'),
  ('pandas.core.tools.numeric',
   'C:\\Users\\onelio\\AppData\\Roaming\\Python\\Python36\\site-packages\\pandas\\core\\tools\\numeric.py',
   'PYMODULE'),
  ('pandas.core.reshape.reshape',
   'C:\\Users\\onelio\\AppData\\Roaming\\Python\\Python36\\site-packages\\pandas\\core\\reshape\\reshape.py',
   'PYMODULE'),
  ('pandas.core.reshape.pivot',
   'C:\\Users\\onelio\\AppData\\Roaming\\Python\\Python36\\site-packages\\pandas\\core\\reshape\\pivot.py',
   'PYMODULE'),
  ('pandas.core.reshape.util',
   'C:\\Users\\onelio\\AppData\\Roaming\\Python\\Python36\\site-packages\\pandas\\core\\reshape\\util.py',
   'PYMODULE'),
  ('pandas.core.groupby',
   'C:\\Users\\onelio\\AppData\\Roaming\\Python\\Python36\\site-packages\\pandas\\core\\groupby\\__init__.py',
   'PYMODULE'),
  ('pandas.core.groupby.grouper',
   'C:\\Users\\onelio\\AppData\\Roaming\\Python\\Python36\\site-packages\\pandas\\core\\groupby\\grouper.py',
   'PYMODULE'),
  ('pandas.core.groupby.categorical',
   'C:\\Users\\onelio\\AppData\\Roaming\\Python\\Python36\\site-packages\\pandas\\core\\groupby\\categorical.py',
   'PYMODULE'),
  ('pandas.core.resample',
   'C:\\Users\\onelio\\AppData\\Roaming\\Python\\Python36\\site-packages\\pandas\\core\\resample.py',
   'PYMODULE'),
  ('pandas.core.indexes.timedeltas',
   'C:\\Users\\onelio\\AppData\\Roaming\\Python\\Python36\\site-packages\\pandas\\core\\indexes\\timedeltas.py',
   'PYMODULE'),
  ('pandas.core.indexes.datetimelike',
   'C:\\Users\\onelio\\AppData\\Roaming\\Python\\Python36\\site-packages\\pandas\\core\\indexes\\datetimelike.py',
   'PYMODULE'),
  ('pandas.core.groupby.ops',
   'C:\\Users\\onelio\\AppData\\Roaming\\Python\\Python36\\site-packages\\pandas\\core\\groupby\\ops.py',
   'PYMODULE'),
  ('pandas.core.groupby.groupby',
   'C:\\Users\\onelio\\AppData\\Roaming\\Python\\Python36\\site-packages\\pandas\\core\\groupby\\groupby.py',
   'PYMODULE'),
  ('pandas.core.window',
   'C:\\Users\\onelio\\AppData\\Roaming\\Python\\Python36\\site-packages\\pandas\\core\\window.py',
   'PYMODULE'),
  ('pandas.api.types',
   'C:\\Users\\onelio\\AppData\\Roaming\\Python\\Python36\\site-packages\\pandas\\api\\types\\__init__.py',
   'PYMODULE'),
  ('pandas.api',
   'C:\\Users\\onelio\\AppData\\Roaming\\Python\\Python36\\site-packages\\pandas\\api\\__init__.py',
   'PYMODULE'),
  ('pandas.api.extensions',
   'C:\\Users\\onelio\\AppData\\Roaming\\Python\\Python36\\site-packages\\pandas\\api\\extensions\\__init__.py',
   'PYMODULE'),
  ('pandas.core.dtypes.api',
   'C:\\Users\\onelio\\AppData\\Roaming\\Python\\Python36\\site-packages\\pandas\\core\\dtypes\\api.py',
   'PYMODULE'),
  ('pandas.core.groupby.generic',
   'C:\\Users\\onelio\\AppData\\Roaming\\Python\\Python36\\site-packages\\pandas\\core\\groupby\\generic.py',
   'PYMODULE'),
  ('pandas.core.reshape.tile',
   'C:\\Users\\onelio\\AppData\\Roaming\\Python\\Python36\\site-packages\\pandas\\core\\reshape\\tile.py',
   'PYMODULE'),
  ('pandas.core.sparse.frame',
   'C:\\Users\\onelio\\AppData\\Roaming\\Python\\Python36\\site-packages\\pandas\\core\\sparse\\frame.py',
   'PYMODULE'),
  ('pandas.core.sparse',
   'C:\\Users\\onelio\\AppData\\Roaming\\Python\\Python36\\site-packages\\pandas\\core\\sparse\\__init__.py',
   'PYMODULE'),
  ('pandas.io.pickle',
   'C:\\Users\\onelio\\AppData\\Roaming\\Python\\Python36\\site-packages\\pandas\\io\\pickle.py',
   'PYMODULE'),
  ('pandas.compat.pickle_compat',
   'C:\\Users\\onelio\\AppData\\Roaming\\Python\\Python36\\site-packages\\pandas\\compat\\pickle_compat.py',
   'PYMODULE'),
  ('numpy.lib.format',
   'C:\\Users\\onelio\\AppData\\Roaming\\Python\\Python36\\site-packages\\numpy\\lib\\format.py',
   'PYMODULE'),
  ('numpy.lib',
   'C:\\Users\\onelio\\AppData\\Roaming\\Python\\Python36\\site-packages\\numpy\\lib\\__init__.py',
   'PYMODULE'),
  ('numpy._pytesttester',
   'C:\\Users\\onelio\\AppData\\Roaming\\Python\\Python36\\site-packages\\numpy\\_pytesttester.py',
   'PYMODULE'),
  ('numpy.distutils.cpuinfo',
   'C:\\Users\\onelio\\AppData\\Roaming\\Python\\Python36\\site-packages\\numpy\\distutils\\cpuinfo.py',
   'PYMODULE'),
  ('numpy.distutils.compat',
   'C:\\Users\\onelio\\AppData\\Roaming\\Python\\Python36\\site-packages\\numpy\\distutils\\compat.py',
   'PYMODULE'),
  ('numpy.distutils',
   'C:\\Users\\onelio\\AppData\\Roaming\\Python\\Python36\\site-packages\\numpy\\distutils\\__init__.py',
   'PYMODULE'),
  ('numpy.distutils.fcompiler',
   'C:\\Users\\onelio\\AppData\\Roaming\\Python\\Python36\\site-packages\\numpy\\distutils\\fcompiler\\__init__.py',
   'PYMODULE'),
  ('numpy.distutils.command.config_compiler',
   'C:\\Users\\onelio\\AppData\\Roaming\\Python\\Python36\\site-packages\\numpy\\distutils\\command\\config_compiler.py',
   'PYMODULE'),
  ('numpy.distutils.command',
   'C:\\Users\\onelio\\AppData\\Roaming\\Python\\Python36\\site-packages\\numpy\\distutils\\command\\__init__.py',
   'PYMODULE'),
  ('numpy.distutils.command.egg_info',
   'C:\\Users\\onelio\\AppData\\Roaming\\Python\\Python36\\site-packages\\numpy\\distutils\\command\\egg_info.py',
   'PYMODULE'),
  ('setuptools.command.egg_info',
   'c:\\python36\\lib\\site-packages\\setuptools\\command\\egg_info.py',
   'PYMODULE'),
  ('setuptools.glob',
   'c:\\python36\\lib\\site-packages\\setuptools\\glob.py',
   'PYMODULE'),
  ('setuptools.unicode_utils',
   'c:\\python36\\lib\\site-packages\\setuptools\\unicode_utils.py',
   'PYMODULE'),
  ('setuptools.command.bdist_egg',
   'c:\\python36\\lib\\site-packages\\setuptools\\command\\bdist_egg.py',
   'PYMODULE'),
  ('setuptools.extension',
   'c:\\python36\\lib\\site-packages\\setuptools\\extension.py',
   'PYMODULE'),
  ('setuptools.monkey',
   'c:\\python36\\lib\\site-packages\\setuptools\\monkey.py',
   'PYMODULE'),
  ('distutils.extension',
   'c:\\python36\\lib\\distutils\\extension.py',
   'PYMODULE'),
  ('setuptools.command',
   'c:\\python36\\lib\\site-packages\\setuptools\\command\\__init__.py',
   'PYMODULE'),
  ('setuptools.command.install_scripts',
   'c:\\python36\\lib\\site-packages\\setuptools\\command\\install_scripts.py',
   'PYMODULE'),
  ('setuptools.command.easy_install',
   'c:\\python36\\lib\\site-packages\\setuptools\\command\\easy_install.py',
   'PYMODULE'),
  ('setuptools.dist',
   'c:\\python36\\lib\\site-packages\\setuptools\\dist.py',
   'PYMODULE'),
  ('setuptools.py36compat',
   'c:\\python36\\lib\\site-packages\\setuptools\\py36compat.py',
   'PYMODULE'),
  ('configparser', 'c:\\python36\\lib\\configparser.py', 'PYMODULE'),
  ('setuptools.config',
   'c:\\python36\\lib\\site-packages\\setuptools\\config.py',
   'PYMODULE'),
  ('setuptools.windows_support',
   'c:\\python36\\lib\\site-packages\\setuptools\\windows_support.py',
   'PYMODULE'),
  ('setuptools.depends',
   'c:\\python36\\lib\\site-packages\\setuptools\\depends.py',
   'PYMODULE'),
  ('setuptools.py33compat',
   'c:\\python36\\lib\\site-packages\\setuptools\\py33compat.py',
   'PYMODULE'),
  ('html.parser', 'c:\\python36\\lib\\html\\parser.py', 'PYMODULE'),
  ('_markupbase', 'c:\\python36\\lib\\_markupbase.py', 'PYMODULE'),
  ('distutils.cmd', 'c:\\python36\\lib\\distutils\\cmd.py', 'PYMODULE'),
  ('setuptools.wheel',
   'c:\\python36\\lib\\site-packages\\setuptools\\wheel.py',
   'PYMODULE'),
  ('setuptools.pep425tags',
   'c:\\python36\\lib\\site-packages\\setuptools\\pep425tags.py',
   'PYMODULE'),
  ('setuptools.glibc',
   'c:\\python36\\lib\\site-packages\\setuptools\\glibc.py',
   'PYMODULE'),
  ('setuptools.package_index',
   'c:\\python36\\lib\\site-packages\\setuptools\\package_index.py',
   'PYMODULE'),
  ('setuptools.ssl_support',
   'c:\\python36\\lib\\site-packages\\setuptools\\ssl_support.py',
   'PYMODULE'),
  ('setuptools.archive_util',
   'c:\\python36\\lib\\site-packages\\setuptools\\archive_util.py',
   'PYMODULE'),
  ('setuptools.py27compat',
   'c:\\python36\\lib\\site-packages\\setuptools\\py27compat.py',
   'PYMODULE'),
  ('setuptools.py31compat',
   'c:\\python36\\lib\\site-packages\\setuptools\\py31compat.py',
   'PYMODULE'),
  ('setuptools.sandbox',
   'c:\\python36\\lib\\site-packages\\setuptools\\sandbox.py',
   'PYMODULE'),
  ('site',
   'c:\\python36\\lib\\site-packages\\PyInstaller\\fake-modules\\site.py',
   'PYMODULE'),
  ('distutils.command.build_scripts',
   'c:\\python36\\lib\\distutils\\command\\build_scripts.py',
   'PYMODULE'),
  ('distutils.command',
   'c:\\python36\\lib\\distutils\\command\\__init__.py',
   'PYMODULE'),
  ('distutils.command.install',
   'c:\\python36\\lib\\distutils\\command\\install.py',
   'PYMODULE'),
  ('distutils.command.install_scripts',
   'c:\\python36\\lib\\distutils\\command\\install_scripts.py',
   'PYMODULE'),
  ('distutils.command.bdist',
   'c:\\python36\\lib\\distutils\\command\\bdist.py',
   'PYMODULE'),
  ('setuptools.command.setopt',
   'c:\\python36\\lib\\site-packages\\setuptools\\command\\setopt.py',
   'PYMODULE'),
  ('setuptools.command.sdist',
   'c:\\python36\\lib\\site-packages\\setuptools\\command\\sdist.py',
   'PYMODULE'),
  ('setuptools.command.py36compat',
   'c:\\python36\\lib\\site-packages\\setuptools\\command\\py36compat.py',
   'PYMODULE'),
  ('distutils.command.sdist',
   'c:\\python36\\lib\\distutils\\command\\sdist.py',
   'PYMODULE'),
  ('setuptools',
   'c:\\python36\\lib\\site-packages\\setuptools\\__init__.py',
   'PYMODULE'),
  ('setuptools._vendor',
   'c:\\python36\\lib\\site-packages\\setuptools\\_vendor\\__init__.py',
   'PYMODULE'),
  ('setuptools._vendor.six',
   'c:\\python36\\lib\\site-packages\\setuptools\\_vendor\\six.py',
   'PYMODULE'),
  ('setuptools._vendor.packaging',
   'c:\\python36\\lib\\site-packages\\setuptools\\_vendor\\packaging\\__init__.py',
   'PYMODULE'),
  ('setuptools._vendor.packaging._structures',
   'c:\\python36\\lib\\site-packages\\setuptools\\_vendor\\packaging\\_structures.py',
   'PYMODULE'),
  ('setuptools._vendor.packaging.__about__',
   'c:\\python36\\lib\\site-packages\\setuptools\\_vendor\\packaging\\__about__.py',
   'PYMODULE'),
  ('setuptools._vendor.pyparsing',
   'c:\\python36\\lib\\site-packages\\setuptools\\_vendor\\pyparsing.py',
   'PYMODULE'),
  ('setuptools._vendor.packaging.specifiers',
   'c:\\python36\\lib\\site-packages\\setuptools\\_vendor\\packaging\\specifiers.py',
   'PYMODULE'),
  ('setuptools._vendor.packaging.requirements',
   'c:\\python36\\lib\\site-packages\\setuptools\\_vendor\\packaging\\requirements.py',
   'PYMODULE'),
  ('setuptools._vendor.packaging.markers',
   'c:\\python36\\lib\\site-packages\\setuptools\\_vendor\\packaging\\markers.py',
   'PYMODULE'),
  ('setuptools._vendor.packaging.utils',
   'c:\\python36\\lib\\site-packages\\setuptools\\_vendor\\packaging\\utils.py',
   'PYMODULE'),
  ('setuptools._vendor.packaging.version',
   'c:\\python36\\lib\\site-packages\\setuptools\\_vendor\\packaging\\version.py',
   'PYMODULE'),
  ('setuptools._vendor.packaging._compat',
   'c:\\python36\\lib\\site-packages\\setuptools\\_vendor\\packaging\\_compat.py',
   'PYMODULE'),
  ('setuptools.msvc',
   'c:\\python36\\lib\\site-packages\\setuptools\\msvc.py',
   'PYMODULE'),
  ('distutils.msvc9compiler',
   'c:\\python36\\lib\\distutils\\msvc9compiler.py',
   'PYMODULE'),
  ('distutils.command.build_ext',
   'c:\\python36\\lib\\distutils\\command\\build_ext.py',
   'PYMODULE'),
  ('distutils._msvccompiler',
   'c:\\python36\\lib\\distutils\\_msvccompiler.py',
   'PYMODULE'),
  ('concurrent.futures',
   'c:\\python36\\lib\\concurrent\\futures\\__init__.py',
   'PYMODULE'),
  ('concurrent.futures.thread',
   'c:\\python36\\lib\\concurrent\\futures\\thread.py',
   'PYMODULE'),
  ('concurrent.futures.process',
   'c:\\python36\\lib\\concurrent\\futures\\process.py',
   'PYMODULE'),
  ('concurrent.futures._base',
   'c:\\python36\\lib\\concurrent\\futures\\_base.py',
   'PYMODULE'),
  ('concurrent', 'c:\\python36\\lib\\concurrent\\__init__.py', 'PYMODULE'),
  ('setuptools.namespaces',
   'c:\\python36\\lib\\site-packages\\setuptools\\namespaces.py',
   'PYMODULE'),
  ('setuptools.version',
   'c:\\python36\\lib\\site-packages\\setuptools\\version.py',
   'PYMODULE'),
  ('setuptools.extern',
   'c:\\python36\\lib\\site-packages\\setuptools\\extern\\__init__.py',
   'PYMODULE'),
  ('numpy.distutils.command.develop',
   'C:\\Users\\onelio\\AppData\\Roaming\\Python\\Python36\\site-packages\\numpy\\distutils\\command\\develop.py',
   'PYMODULE'),
  ('setuptools.command.develop',
   'c:\\python36\\lib\\site-packages\\setuptools\\command\\develop.py',
   'PYMODULE'),
  ('numpy.distutils.command.install_clib',
   'C:\\Users\\onelio\\AppData\\Roaming\\Python\\Python36\\site-packages\\numpy\\distutils\\command\\install_clib.py',
   'PYMODULE'),
  ('numpy.distutils.command.bdist_rpm',
   'C:\\Users\\onelio\\AppData\\Roaming\\Python\\Python36\\site-packages\\numpy\\distutils\\command\\bdist_rpm.py',
   'PYMODULE'),
  ('distutils.command.bdist_rpm',
   'c:\\python36\\lib\\distutils\\command\\bdist_rpm.py',
   'PYMODULE'),
  ('setuptools.command.bdist_rpm',
   'c:\\python36\\lib\\site-packages\\setuptools\\command\\bdist_rpm.py',
   'PYMODULE'),
  ('numpy.distutils.command.install',
   'C:\\Users\\onelio\\AppData\\Roaming\\Python\\Python36\\site-packages\\numpy\\distutils\\command\\install.py',
   'PYMODULE'),
  ('setuptools.command.install',
   'c:\\python36\\lib\\site-packages\\setuptools\\command\\install.py',
   'PYMODULE'),
  ('numpy.distutils.command.install_headers',
   'C:\\Users\\onelio\\AppData\\Roaming\\Python\\Python36\\site-packages\\numpy\\distutils\\command\\install_headers.py',
   'PYMODULE'),
  ('distutils.command.install_headers',
   'c:\\python36\\lib\\distutils\\command\\install_headers.py',
   'PYMODULE'),
  ('numpy.distutils.command.install_data',
   'C:\\Users\\onelio\\AppData\\Roaming\\Python\\Python36\\site-packages\\numpy\\distutils\\command\\install_data.py',
   'PYMODULE'),
  ('distutils.command.install_data',
   'c:\\python36\\lib\\distutils\\command\\install_data.py',
   'PYMODULE'),
  ('numpy.distutils.command.sdist',
   'C:\\Users\\onelio\\AppData\\Roaming\\Python\\Python36\\site-packages\\numpy\\distutils\\command\\sdist.py',
   'PYMODULE'),
  ('numpy.distutils.command.build_scripts',
   'C:\\Users\\onelio\\AppData\\Roaming\\Python\\Python36\\site-packages\\numpy\\distutils\\command\\build_scripts.py',
   'PYMODULE'),
  ('numpy.distutils.command.build_clib',
   'C:\\Users\\onelio\\AppData\\Roaming\\Python\\Python36\\site-packages\\numpy\\distutils\\command\\build_clib.py',
   'PYMODULE'),
  ('distutils.command.build_clib',
   'c:\\python36\\lib\\distutils\\command\\build_clib.py',
   'PYMODULE'),
  ('numpy.distutils.command.build_ext',
   'C:\\Users\\onelio\\AppData\\Roaming\\Python\\Python36\\site-packages\\numpy\\distutils\\command\\build_ext.py',
   'PYMODULE'),
  ('numpy.distutils.system_info',
   'C:\\Users\\onelio\\AppData\\Roaming\\Python\\Python36\\site-packages\\numpy\\distutils\\system_info.py',
   'PYMODULE'),
  ('numpy.f2py',
   'C:\\Users\\onelio\\AppData\\Roaming\\Python\\Python36\\site-packages\\numpy\\f2py\\__init__.py',
   'PYMODULE'),
  ('numpy.f2py.diagnose',
   'C:\\Users\\onelio\\AppData\\Roaming\\Python\\Python36\\site-packages\\numpy\\f2py\\diagnose.py',
   'PYMODULE'),
  ('numpy.f2py.f2py_testing',
   'C:\\Users\\onelio\\AppData\\Roaming\\Python\\Python36\\site-packages\\numpy\\f2py\\f2py_testing.py',
   'PYMODULE'),
  ('numpy.testing',
   'C:\\Users\\onelio\\AppData\\Roaming\\Python\\Python36\\site-packages\\numpy\\testing\\__init__.py',
   'PYMODULE'),
  ('numpy.testing._private.nosetester',
   'C:\\Users\\onelio\\AppData\\Roaming\\Python\\Python36\\site-packages\\numpy\\testing\\_private\\nosetester.py',
   'PYMODULE'),
  ('numpy.testing._private.noseclasses',
   'C:\\Users\\onelio\\AppData\\Roaming\\Python\\Python36\\site-packages\\numpy\\testing\\_private\\noseclasses.py',
   'PYMODULE'),
  ('numpy.core',
   'C:\\Users\\onelio\\AppData\\Roaming\\Python\\Python36\\site-packages\\numpy\\core\\__init__.py',
   'PYMODULE'),
  ('numpy.core._dtype',
   'C:\\Users\\onelio\\AppData\\Roaming\\Python\\Python36\\site-packages\\numpy\\core\\_dtype.py',
   'PYMODULE'),
  ('numpy.core._internal',
   'C:\\Users\\onelio\\AppData\\Roaming\\Python\\Python36\\site-packages\\numpy\\core\\_internal.py',
   'PYMODULE'),
  ('numpy.core._dtype_ctypes',
   'C:\\Users\\onelio\\AppData\\Roaming\\Python\\Python36\\site-packages\\numpy\\core\\_dtype_ctypes.py',
   'PYMODULE'),
  ('numpy.core._add_newdocs',
   'C:\\Users\\onelio\\AppData\\Roaming\\Python\\Python36\\site-packages\\numpy\\core\\_add_newdocs.py',
   'PYMODULE'),
  ('numpy.core.einsumfunc',
   'C:\\Users\\onelio\\AppData\\Roaming\\Python\\Python36\\site-packages\\numpy\\core\\einsumfunc.py',
   'PYMODULE'),
  ('numpy.core.shape_base',
   'C:\\Users\\onelio\\AppData\\Roaming\\Python\\Python36\\site-packages\\numpy\\core\\shape_base.py',
   'PYMODULE'),
  ('numpy.core.getlimits',
   'C:\\Users\\onelio\\AppData\\Roaming\\Python\\Python36\\site-packages\\numpy\\core\\getlimits.py',
   'PYMODULE'),
  ('numpy.core.machar',
   'C:\\Users\\onelio\\AppData\\Roaming\\Python\\Python36\\site-packages\\numpy\\core\\machar.py',
   'PYMODULE'),
  ('numpy.core._ufunc_config',
   'C:\\Users\\onelio\\AppData\\Roaming\\Python\\Python36\\site-packages\\numpy\\core\\_ufunc_config.py',
   'PYMODULE'),
  ('numpy.core.function_base',
   'C:\\Users\\onelio\\AppData\\Roaming\\Python\\Python36\\site-packages\\numpy\\core\\function_base.py',
   'PYMODULE'),
  ('numpy.core.memmap',
   'C:\\Users\\onelio\\AppData\\Roaming\\Python\\Python36\\site-packages\\numpy\\core\\memmap.py',
   'PYMODULE'),
  ('numpy.core.records',
   'C:\\Users\\onelio\\AppData\\Roaming\\Python\\Python36\\site-packages\\numpy\\core\\records.py',
   'PYMODULE'),
  ('numpy.core.defchararray',
   'C:\\Users\\onelio\\AppData\\Roaming\\Python\\Python36\\site-packages\\numpy\\core\\defchararray.py',
   'PYMODULE'),
  ('numpy.core.numeric',
   'C:\\Users\\onelio\\AppData\\Roaming\\Python\\Python36\\site-packages\\numpy\\core\\numeric.py',
   'PYMODULE'),
  ('numpy.core._asarray',
   'C:\\Users\\onelio\\AppData\\Roaming\\Python\\Python36\\site-packages\\numpy\\core\\_asarray.py',
   'PYMODULE'),
  ('numpy.core._exceptions',
   'C:\\Users\\onelio\\AppData\\Roaming\\Python\\Python36\\site-packages\\numpy\\core\\_exceptions.py',
   'PYMODULE'),
  ('numpy.core.arrayprint',
   'C:\\Users\\onelio\\AppData\\Roaming\\Python\\Python36\\site-packages\\numpy\\core\\arrayprint.py',
   'PYMODULE'),
  ('numpy.core.fromnumeric',
   'C:\\Users\\onelio\\AppData\\Roaming\\Python\\Python36\\site-packages\\numpy\\core\\fromnumeric.py',
   'PYMODULE'),
  ('numpy.core._methods',
   'C:\\Users\\onelio\\AppData\\Roaming\\Python\\Python36\\site-packages\\numpy\\core\\_methods.py',
   'PYMODULE'),
  ('numpy._globals',
   'C:\\Users\\onelio\\AppData\\Roaming\\Python\\Python36\\site-packages\\numpy\\_globals.py',
   'PYMODULE'),
  ('numpy.core.numerictypes',
   'C:\\Users\\onelio\\AppData\\Roaming\\Python\\Python36\\site-packages\\numpy\\core\\numerictypes.py',
   'PYMODULE'),
  ('numpy.core._type_aliases',
   'C:\\Users\\onelio\\AppData\\Roaming\\Python\\Python36\\site-packages\\numpy\\core\\_type_aliases.py',
   'PYMODULE'),
  ('numpy.core._string_helpers',
   'C:\\Users\\onelio\\AppData\\Roaming\\Python\\Python36\\site-packages\\numpy\\core\\_string_helpers.py',
   'PYMODULE'),
  ('numpy.core.umath',
   'C:\\Users\\onelio\\AppData\\Roaming\\Python\\Python36\\site-packages\\numpy\\core\\umath.py',
   'PYMODULE'),
  ('numpy.core.multiarray',
   'C:\\Users\\onelio\\AppData\\Roaming\\Python\\Python36\\site-packages\\numpy\\core\\multiarray.py',
   'PYMODULE'),
  ('numpy.core.overrides',
   'C:\\Users\\onelio\\AppData\\Roaming\\Python\\Python36\\site-packages\\numpy\\core\\overrides.py',
   'PYMODULE'),
  ('numpy.compat._inspect',
   'C:\\Users\\onelio\\AppData\\Roaming\\Python\\Python36\\site-packages\\numpy\\compat\\_inspect.py',
   'PYMODULE'),
  ('numpy.core.info',
   'C:\\Users\\onelio\\AppData\\Roaming\\Python\\Python36\\site-packages\\numpy\\core\\info.py',
   'PYMODULE'),
  ('numpy.testing._private.decorators',
   'C:\\Users\\onelio\\AppData\\Roaming\\Python\\Python36\\site-packages\\numpy\\testing\\_private\\decorators.py',
   'PYMODULE'),
  ('numpy.testing._private.parameterized',
   'C:\\Users\\onelio\\AppData\\Roaming\\Python\\Python36\\site-packages\\numpy\\testing\\_private\\parameterized.py',
   'PYMODULE'),
  ('numpy.testing._private',
   'C:\\Users\\onelio\\AppData\\Roaming\\Python\\Python36\\site-packages\\numpy\\testing\\_private\\__init__.py',
   'PYMODULE'),
  ('numpy.testing._private.utils',
   'C:\\Users\\onelio\\AppData\\Roaming\\Python\\Python36\\site-packages\\numpy\\testing\\_private\\utils.py',
   'PYMODULE'),
  ('numpy.f2py.f2py2e',
   'C:\\Users\\onelio\\AppData\\Roaming\\Python\\Python36\\site-packages\\numpy\\f2py\\f2py2e.py',
   'PYMODULE'),
  ('numpy.distutils.command.build_src',
   'C:\\Users\\onelio\\AppData\\Roaming\\Python\\Python36\\site-packages\\numpy\\distutils\\command\\build_src.py',
   'PYMODULE'),
  ('numpy.distutils.conv_template',
   'C:\\Users\\onelio\\AppData\\Roaming\\Python\\Python36\\site-packages\\numpy\\distutils\\conv_template.py',
   'PYMODULE'),
  ('numpy.distutils.from_template',
   'C:\\Users\\onelio\\AppData\\Roaming\\Python\\Python36\\site-packages\\numpy\\distutils\\from_template.py',
   'PYMODULE'),
  ('numpy.f2py.auxfuncs',
   'C:\\Users\\onelio\\AppData\\Roaming\\Python\\Python36\\site-packages\\numpy\\f2py\\auxfuncs.py',
   'PYMODULE'),
  ('numpy.f2py.f90mod_rules',
   'C:\\Users\\onelio\\AppData\\Roaming\\Python\\Python36\\site-packages\\numpy\\f2py\\f90mod_rules.py',
   'PYMODULE'),
  ('numpy.f2py.rules',
   'C:\\Users\\onelio\\AppData\\Roaming\\Python\\Python36\\site-packages\\numpy\\f2py\\rules.py',
   'PYMODULE'),
  ('numpy.f2py.use_rules',
   'C:\\Users\\onelio\\AppData\\Roaming\\Python\\Python36\\site-packages\\numpy\\f2py\\use_rules.py',
   'PYMODULE'),
  ('numpy.f2py.common_rules',
   'C:\\Users\\onelio\\AppData\\Roaming\\Python\\Python36\\site-packages\\numpy\\f2py\\common_rules.py',
   'PYMODULE'),
  ('numpy.f2py.func2subr',
   'C:\\Users\\onelio\\AppData\\Roaming\\Python\\Python36\\site-packages\\numpy\\f2py\\func2subr.py',
   'PYMODULE'),
  ('numpy.f2py.crackfortran',
   'C:\\Users\\onelio\\AppData\\Roaming\\Python\\Python36\\site-packages\\numpy\\f2py\\crackfortran.py',
   'PYMODULE'),
  ('fileinput', 'c:\\python36\\lib\\fileinput.py', 'PYMODULE'),
  ('numpy.f2py.cb_rules',
   'C:\\Users\\onelio\\AppData\\Roaming\\Python\\Python36\\site-packages\\numpy\\f2py\\cb_rules.py',
   'PYMODULE'),
  ('numpy.f2py.capi_maps',
   'C:\\Users\\onelio\\AppData\\Roaming\\Python\\Python36\\site-packages\\numpy\\f2py\\capi_maps.py',
   'PYMODULE'),
  ('numpy.f2py.cfuncs',
   'C:\\Users\\onelio\\AppData\\Roaming\\Python\\Python36\\site-packages\\numpy\\f2py\\cfuncs.py',
   'PYMODULE'),
  ('numpy.f2py.__version__',
   'C:\\Users\\onelio\\AppData\\Roaming\\Python\\Python36\\site-packages\\numpy\\f2py\\__version__.py',
   'PYMODULE'),
  ('numpy.distutils.command.build_py',
   'C:\\Users\\onelio\\AppData\\Roaming\\Python\\Python36\\site-packages\\numpy\\distutils\\command\\build_py.py',
   'PYMODULE'),
  ('distutils.command.build_py',
   'c:\\python36\\lib\\distutils\\command\\build_py.py',
   'PYMODULE'),
  ('numpy.distutils.command.build',
   'C:\\Users\\onelio\\AppData\\Roaming\\Python\\Python36\\site-packages\\numpy\\distutils\\command\\build.py',
   'PYMODULE'),
  ('distutils.command.build',
   'c:\\python36\\lib\\distutils\\command\\build.py',
   'PYMODULE'),
  ('numpy.distutils.command.config',
   'C:\\Users\\onelio\\AppData\\Roaming\\Python\\Python36\\site-packages\\numpy\\distutils\\command\\config.py',
   'PYMODULE'),
  ('numpy.distutils.command.autodist',
   'C:\\Users\\onelio\\AppData\\Roaming\\Python\\Python36\\site-packages\\numpy\\distutils\\command\\autodist.py',
   'PYMODULE'),
  ('numpy.distutils.mingw32ccompiler',
   'C:\\Users\\onelio\\AppData\\Roaming\\Python\\Python36\\site-packages\\numpy\\distutils\\mingw32ccompiler.py',
   'PYMODULE'),
  ('distutils.msvccompiler',
   'c:\\python36\\lib\\distutils\\msvccompiler.py',
   'PYMODULE'),
  ('distutils.unixccompiler',
   'c:\\python36\\lib\\distutils\\unixccompiler.py',
   'PYMODULE'),
  ('distutils.cygwinccompiler',
   'c:\\python36\\lib\\distutils\\cygwinccompiler.py',
   'PYMODULE'),
  ('distutils.command.config',
   'c:\\python36\\lib\\distutils\\command\\config.py',
   'PYMODULE'),
  ('distutils.core', 'c:\\python36\\lib\\distutils\\core.py', 'PYMODULE'),
  ('distutils.config', 'c:\\python36\\lib\\distutils\\config.py', 'PYMODULE'),
  ('cgi', 'c:\\python36\\lib\\cgi.py', 'PYMODULE'),
  ('distutils.dist', 'c:\\python36\\lib\\distutils\\dist.py', 'PYMODULE'),
  ('distutils.versionpredicate',
   'c:\\python36\\lib\\distutils\\versionpredicate.py',
   'PYMODULE'),
  ('numpy.distutils.core',
   'C:\\Users\\onelio\\AppData\\Roaming\\Python\\Python36\\site-packages\\numpy\\distutils\\core.py',
   'PYMODULE'),
  ('numpy.distutils.numpy_distribution',
   'C:\\Users\\onelio\\AppData\\Roaming\\Python\\Python36\\site-packages\\numpy\\distutils\\numpy_distribution.py',
   'PYMODULE'),
  ('numpy.distutils.extension',
   'C:\\Users\\onelio\\AppData\\Roaming\\Python\\Python36\\site-packages\\numpy\\distutils\\extension.py',
   'PYMODULE'),
  ('numpy.distutils.fcompiler.environment',
   'C:\\Users\\onelio\\AppData\\Roaming\\Python\\Python36\\site-packages\\numpy\\distutils\\fcompiler\\environment.py',
   'PYMODULE'),
  ('numpy.distutils.exec_command',
   'C:\\Users\\onelio\\AppData\\Roaming\\Python\\Python36\\site-packages\\numpy\\distutils\\exec_command.py',
   'PYMODULE'),
  ('numpy.distutils.misc_util',
   'C:\\Users\\onelio\\AppData\\Roaming\\Python\\Python36\\site-packages\\numpy\\distutils\\misc_util.py',
   'PYMODULE'),
  ('curses', 'c:\\python36\\lib\\curses\\__init__.py', 'PYMODULE'),
  ('curses.has_key', 'c:\\python36\\lib\\curses\\has_key.py', 'PYMODULE'),
  ('numpy.distutils.__config__',
   'C:\\Users\\onelio\\AppData\\Roaming\\Python\\Python36\\site-packages\\numpy\\distutils\\__config__.py',
   'PYMODULE'),
  ('numpy.distutils.npy_pkg_config',
   'C:\\Users\\onelio\\AppData\\Roaming\\Python\\Python36\\site-packages\\numpy\\distutils\\npy_pkg_config.py',
   'PYMODULE'),
  ('numpy.distutils.info',
   'C:\\Users\\onelio\\AppData\\Roaming\\Python\\Python36\\site-packages\\numpy\\distutils\\info.py',
   'PYMODULE'),
  ('numpy.distutils.unixccompiler',
   'C:\\Users\\onelio\\AppData\\Roaming\\Python\\Python36\\site-packages\\numpy\\distutils\\unixccompiler.py',
   'PYMODULE'),
  ('numpy.distutils.ccompiler',
   'C:\\Users\\onelio\\AppData\\Roaming\\Python\\Python36\\site-packages\\numpy\\distutils\\ccompiler.py',
   'PYMODULE'),
  ('numpy.distutils._shell_utils',
   'C:\\Users\\onelio\\AppData\\Roaming\\Python\\Python36\\site-packages\\numpy\\distutils\\_shell_utils.py',
   'PYMODULE'),
  ('pipes', 'c:\\python36\\lib\\pipes.py', 'PYMODULE'),
  ('numpy.distutils.lib2def',
   'C:\\Users\\onelio\\AppData\\Roaming\\Python\\Python36\\site-packages\\numpy\\distutils\\lib2def.py',
   'PYMODULE'),
  ('numpy.distutils.log',
   'C:\\Users\\onelio\\AppData\\Roaming\\Python\\Python36\\site-packages\\numpy\\distutils\\log.py',
   'PYMODULE'),
  ('numpy.distutils.__version__',
   'C:\\Users\\onelio\\AppData\\Roaming\\Python\\Python36\\site-packages\\numpy\\distutils\\__version__.py',
   'PYMODULE'),
  ('numpy.lib._version',
   'C:\\Users\\onelio\\AppData\\Roaming\\Python\\Python36\\site-packages\\numpy\\lib\\_version.py',
   'PYMODULE'),
  ('numpy.lib.arraypad',
   'C:\\Users\\onelio\\AppData\\Roaming\\Python\\Python36\\site-packages\\numpy\\lib\\arraypad.py',
   'PYMODULE'),
  ('numpy.lib.arrayterator',
   'C:\\Users\\onelio\\AppData\\Roaming\\Python\\Python36\\site-packages\\numpy\\lib\\arrayterator.py',
   'PYMODULE'),
  ('numpy.lib.financial',
   'C:\\Users\\onelio\\AppData\\Roaming\\Python\\Python36\\site-packages\\numpy\\lib\\financial.py',
   'PYMODULE'),
  ('numpy.lib.npyio',
   'C:\\Users\\onelio\\AppData\\Roaming\\Python\\Python36\\site-packages\\numpy\\lib\\npyio.py',
   'PYMODULE'),
  ('numpy.lib._iotools',
   'C:\\Users\\onelio\\AppData\\Roaming\\Python\\Python36\\site-packages\\numpy\\lib\\_iotools.py',
   'PYMODULE'),
  ('numpy.lib._datasource',
   'C:\\Users\\onelio\\AppData\\Roaming\\Python\\Python36\\site-packages\\numpy\\lib\\_datasource.py',
   'PYMODULE'),
  ('numpy.lib.arraysetops',
   'C:\\Users\\onelio\\AppData\\Roaming\\Python\\Python36\\site-packages\\numpy\\lib\\arraysetops.py',
   'PYMODULE'),
  ('numpy.lib.polynomial',
   'C:\\Users\\onelio\\AppData\\Roaming\\Python\\Python36\\site-packages\\numpy\\lib\\polynomial.py',
   'PYMODULE'),
  ('numpy.linalg',
   'C:\\Users\\onelio\\AppData\\Roaming\\Python\\Python36\\site-packages\\numpy\\linalg\\__init__.py',
   'PYMODULE'),
  ('numpy.linalg.linalg',
   'C:\\Users\\onelio\\AppData\\Roaming\\Python\\Python36\\site-packages\\numpy\\linalg\\linalg.py',
   'PYMODULE'),
  ('numpy.linalg.info',
   'C:\\Users\\onelio\\AppData\\Roaming\\Python\\Python36\\site-packages\\numpy\\linalg\\info.py',
   'PYMODULE'),
  ('numpy.lib.scimath',
   'C:\\Users\\onelio\\AppData\\Roaming\\Python\\Python36\\site-packages\\numpy\\lib\\scimath.py',
   'PYMODULE'),
  ('numpy.lib.histograms',
   'C:\\Users\\onelio\\AppData\\Roaming\\Python\\Python36\\site-packages\\numpy\\lib\\histograms.py',
   'PYMODULE'),
  ('numpy.compat.py3k',
   'C:\\Users\\onelio\\AppData\\Roaming\\Python\\Python36\\site-packages\\numpy\\compat\\py3k.py',
   'PYMODULE'),
  ('numpy.lib.ufunclike',
   'C:\\Users\\onelio\\AppData\\Roaming\\Python\\Python36\\site-packages\\numpy\\lib\\ufunclike.py',
   'PYMODULE'),
  ('numpy.lib.twodim_base',
   'C:\\Users\\onelio\\AppData\\Roaming\\Python\\Python36\\site-packages\\numpy\\lib\\twodim_base.py',
   'PYMODULE'),
  ('numpy.lib.stride_tricks',
   'C:\\Users\\onelio\\AppData\\Roaming\\Python\\Python36\\site-packages\\numpy\\lib\\stride_tricks.py',
   'PYMODULE'),
  ('numpy.lib.shape_base',
   'C:\\Users\\onelio\\AppData\\Roaming\\Python\\Python36\\site-packages\\numpy\\lib\\shape_base.py',
   'PYMODULE'),
  ('numpy.matrixlib.defmatrix',
   'C:\\Users\\onelio\\AppData\\Roaming\\Python\\Python36\\site-packages\\numpy\\matrixlib\\defmatrix.py',
   'PYMODULE'),
  ('numpy.matrixlib',
   'C:\\Users\\onelio\\AppData\\Roaming\\Python\\Python36\\site-packages\\numpy\\matrixlib\\__init__.py',
   'PYMODULE'),
  ('numpy.dual',
   'C:\\Users\\onelio\\AppData\\Roaming\\Python\\Python36\\site-packages\\numpy\\dual.py',
   'PYMODULE'),
  ('numpy.fft',
   'C:\\Users\\onelio\\AppData\\Roaming\\Python\\Python36\\site-packages\\numpy\\fft\\__init__.py',
   'PYMODULE'),
  ('numpy.fft.helper',
   'C:\\Users\\onelio\\AppData\\Roaming\\Python\\Python36\\site-packages\\numpy\\fft\\helper.py',
   'PYMODULE'),
  ('numpy.fft.pocketfft',
   'C:\\Users\\onelio\\AppData\\Roaming\\Python\\Python36\\site-packages\\numpy\\fft\\pocketfft.py',
   'PYMODULE'),
  ('numpy.fft.info',
   'C:\\Users\\onelio\\AppData\\Roaming\\Python\\Python36\\site-packages\\numpy\\fft\\info.py',
   'PYMODULE'),
  ('numpy.lib.nanfunctions',
   'C:\\Users\\onelio\\AppData\\Roaming\\Python\\Python36\\site-packages\\numpy\\lib\\nanfunctions.py',
   'PYMODULE'),
  ('numpy.lib.mixins',
   'C:\\Users\\onelio\\AppData\\Roaming\\Python\\Python36\\site-packages\\numpy\\lib\\mixins.py',
   'PYMODULE'),
  ('numpy.lib.function_base',
   'C:\\Users\\onelio\\AppData\\Roaming\\Python\\Python36\\site-packages\\numpy\\lib\\function_base.py',
   'PYMODULE'),
  ('numpy.lib.index_tricks',
   'C:\\Users\\onelio\\AppData\\Roaming\\Python\\Python36\\site-packages\\numpy\\lib\\index_tricks.py',
   'PYMODULE'),
  ('numpy.lib.type_check',
   'C:\\Users\\onelio\\AppData\\Roaming\\Python\\Python36\\site-packages\\numpy\\lib\\type_check.py',
   'PYMODULE'),
  ('numpy.version',
   'C:\\Users\\onelio\\AppData\\Roaming\\Python\\Python36\\site-packages\\numpy\\version.py',
   'PYMODULE'),
  ('numpy.lib.info',
   'C:\\Users\\onelio\\AppData\\Roaming\\Python\\Python36\\site-packages\\numpy\\lib\\info.py',
   'PYMODULE'),
  ('numpy.compat',
   'C:\\Users\\onelio\\AppData\\Roaming\\Python\\Python36\\site-packages\\numpy\\compat\\__init__.py',
   'PYMODULE'),
  ('numpy.lib.utils',
   'C:\\Users\\onelio\\AppData\\Roaming\\Python\\Python36\\site-packages\\numpy\\lib\\utils.py',
   'PYMODULE'),
  ('pandas.core.sparse.series',
   'C:\\Users\\onelio\\AppData\\Roaming\\Python\\Python36\\site-packages\\pandas\\core\\sparse\\series.py',
   'PYMODULE'),
  ('pandas.core.sparse.scipy_sparse',
   'C:\\Users\\onelio\\AppData\\Roaming\\Python\\Python36\\site-packages\\pandas\\core\\sparse\\scipy_sparse.py',
   'PYMODULE'),
  ('pandas.core.groupby.base',
   'C:\\Users\\onelio\\AppData\\Roaming\\Python\\Python36\\site-packages\\pandas\\core\\groupby\\base.py',
   'PYMODULE'),
  ('pandas.core.computation.eval',
   'C:\\Users\\onelio\\AppData\\Roaming\\Python\\Python36\\site-packages\\pandas\\core\\computation\\eval.py',
   'PYMODULE'),
  ('pandas.core.computation.expr',
   'C:\\Users\\onelio\\AppData\\Roaming\\Python\\Python36\\site-packages\\pandas\\core\\computation\\expr.py',
   'PYMODULE'),
  ('pandas.core.computation.ops',
   'C:\\Users\\onelio\\AppData\\Roaming\\Python\\Python36\\site-packages\\pandas\\core\\computation\\ops.py',
   'PYMODULE'),
  ('pandas.core.computation.common',
   'C:\\Users\\onelio\\AppData\\Roaming\\Python\\Python36\\site-packages\\pandas\\core\\computation\\common.py',
   'PYMODULE'),
  ('pandas.core.computation.scope',
   'C:\\Users\\onelio\\AppData\\Roaming\\Python\\Python36\\site-packages\\pandas\\core\\computation\\scope.py',
   'PYMODULE'),
  ('pandas.compat.chainmap',
   'C:\\Users\\onelio\\AppData\\Roaming\\Python\\Python36\\site-packages\\pandas\\compat\\chainmap.py',
   'PYMODULE'),
  ('pandas.core.computation.engines',
   'C:\\Users\\onelio\\AppData\\Roaming\\Python\\Python36\\site-packages\\pandas\\core\\computation\\engines.py',
   'PYMODULE'),
  ('pandas.core.computation.align',
   'C:\\Users\\onelio\\AppData\\Roaming\\Python\\Python36\\site-packages\\pandas\\core\\computation\\align.py',
   'PYMODULE'),
  ('pandas.io.parquet',
   'C:\\Users\\onelio\\AppData\\Roaming\\Python\\Python36\\site-packages\\pandas\\io\\parquet.py',
   'PYMODULE'),
  ('pandas.io.s3',
   'C:\\Users\\onelio\\AppData\\Roaming\\Python\\Python36\\site-packages\\pandas\\io\\s3.py',
   'PYMODULE'),
  ('pandas.io.feather_format',
   'C:\\Users\\onelio\\AppData\\Roaming\\Python\\Python36\\site-packages\\pandas\\io\\feather_format.py',
   'PYMODULE'),
  ('pandas.io.stata',
   'C:\\Users\\onelio\\AppData\\Roaming\\Python\\Python36\\site-packages\\pandas\\io\\stata.py',
   'PYMODULE'),
  ('dateutil.relativedelta',
   'C:\\Users\\onelio\\AppData\\Roaming\\Python\\Python36\\site-packages\\dateutil\\relativedelta.py',
   'PYMODULE'),
  ('dateutil',
   'C:\\Users\\onelio\\AppData\\Roaming\\Python\\Python36\\site-packages\\dateutil\\__init__.py',
   'PYMODULE'),
  ('dateutil.tz',
   'C:\\Users\\onelio\\AppData\\Roaming\\Python\\Python36\\site-packages\\dateutil\\tz\\__init__.py',
   'PYMODULE'),
  ('dateutil.tz.tz',
   'C:\\Users\\onelio\\AppData\\Roaming\\Python\\Python36\\site-packages\\dateutil\\tz\\tz.py',
   'PYMODULE'),
  ('dateutil.zoneinfo',
   'C:\\Users\\onelio\\AppData\\Roaming\\Python\\Python36\\site-packages\\dateutil\\zoneinfo\\__init__.py',
   'PYMODULE'),
  ('dateutil.parser._parser',
   'C:\\Users\\onelio\\AppData\\Roaming\\Python\\Python36\\site-packages\\dateutil\\parser\\_parser.py',
   'PYMODULE'),
  ('dateutil.parser',
   'C:\\Users\\onelio\\AppData\\Roaming\\Python\\Python36\\site-packages\\dateutil\\parser\\__init__.py',
   'PYMODULE'),
  ('dateutil.parser.isoparser',
   'C:\\Users\\onelio\\AppData\\Roaming\\Python\\Python36\\site-packages\\dateutil\\parser\\isoparser.py',
   'PYMODULE'),
  ('dateutil.tz.win',
   'C:\\Users\\onelio\\AppData\\Roaming\\Python\\Python36\\site-packages\\dateutil\\tz\\win.py',
   'PYMODULE'),
  ('dateutil.tz._factories',
   'C:\\Users\\onelio\\AppData\\Roaming\\Python\\Python36\\site-packages\\dateutil\\tz\\_factories.py',
   'PYMODULE'),
  ('dateutil.tz._common',
   'C:\\Users\\onelio\\AppData\\Roaming\\Python\\Python36\\site-packages\\dateutil\\tz\\_common.py',
   'PYMODULE'),
  ('dateutil.rrule',
   'C:\\Users\\onelio\\AppData\\Roaming\\Python\\Python36\\site-packages\\dateutil\\rrule.py',
   'PYMODULE'),
  ('dateutil.easter',
   'C:\\Users\\onelio\\AppData\\Roaming\\Python\\Python36\\site-packages\\dateutil\\easter.py',
   'PYMODULE'),
  ('fractions', 'c:\\python36\\lib\\fractions.py', 'PYMODULE'),
  ('dateutil._version',
   'C:\\Users\\onelio\\AppData\\Roaming\\Python\\Python36\\site-packages\\dateutil\\_version.py',
   'PYMODULE'),
  ('dateutil._common',
   'C:\\Users\\onelio\\AppData\\Roaming\\Python\\Python36\\site-packages\\dateutil\\_common.py',
   'PYMODULE'),
  ('six', 'c:\\python36\\lib\\site-packages\\six.py', 'PYMODULE'),
  ('pandas.io.gbq',
   'C:\\Users\\onelio\\AppData\\Roaming\\Python\\Python36\\site-packages\\pandas\\io\\gbq.py',
   'PYMODULE'),
  ('pandas.io',
   'C:\\Users\\onelio\\AppData\\Roaming\\Python\\Python36\\site-packages\\pandas\\io\\__init__.py',
   'PYMODULE'),
  ('pandas.io.clipboards',
   'C:\\Users\\onelio\\AppData\\Roaming\\Python\\Python36\\site-packages\\pandas\\io\\clipboards.py',
   'PYMODULE'),
  ('pandas.io.parsers',
   'C:\\Users\\onelio\\AppData\\Roaming\\Python\\Python36\\site-packages\\pandas\\io\\parsers.py',
   'PYMODULE'),
  ('pandas.io.date_converters',
   'C:\\Users\\onelio\\AppData\\Roaming\\Python\\Python36\\site-packages\\pandas\\io\\date_converters.py',
   'PYMODULE'),
  ('csv', 'c:\\python36\\lib\\csv.py', 'PYMODULE'),
  ('pandas.io.clipboard',
   'C:\\Users\\onelio\\AppData\\Roaming\\Python\\Python36\\site-packages\\pandas\\io\\clipboard\\__init__.py',
   'PYMODULE'),
  ('pandas.io.clipboard.windows',
   'C:\\Users\\onelio\\AppData\\Roaming\\Python\\Python36\\site-packages\\pandas\\io\\clipboard\\windows.py',
   'PYMODULE'),
  ('pandas.io.clipboard.exceptions',
   'C:\\Users\\onelio\\AppData\\Roaming\\Python\\Python36\\site-packages\\pandas\\io\\clipboard\\exceptions.py',
   'PYMODULE'),
  ('pandas.io.clipboard.clipboards',
   'C:\\Users\\onelio\\AppData\\Roaming\\Python\\Python36\\site-packages\\pandas\\io\\clipboard\\clipboards.py',
   'PYMODULE'),
  ('pandas.io.sql',
   'C:\\Users\\onelio\\AppData\\Roaming\\Python\\Python36\\site-packages\\pandas\\io\\sql.py',
   'PYMODULE'),
  ('sqlite3', 'c:\\python36\\lib\\sqlite3\\__init__.py', 'PYMODULE'),
  ('sqlite3.dump', 'c:\\python36\\lib\\sqlite3\\dump.py', 'PYMODULE'),
  ('sqlite3.dbapi2', 'c:\\python36\\lib\\sqlite3\\dbapi2.py', 'PYMODULE'),
  ('pandas.io.packers',
   'C:\\Users\\onelio\\AppData\\Roaming\\Python\\Python36\\site-packages\\pandas\\io\\packers.py',
   'PYMODULE'),
  ('pandas.io.msgpack',
   'C:\\Users\\onelio\\AppData\\Roaming\\Python\\Python36\\site-packages\\pandas\\io\\msgpack\\__init__.py',
   'PYMODULE'),
  ('pandas.io.msgpack._version',
   'C:\\Users\\onelio\\AppData\\Roaming\\Python\\Python36\\site-packages\\pandas\\io\\msgpack\\_version.py',
   'PYMODULE'),
  ('pandas.io.msgpack.exceptions',
   'C:\\Users\\onelio\\AppData\\Roaming\\Python\\Python36\\site-packages\\pandas\\io\\msgpack\\exceptions.py',
   'PYMODULE'),
  ('pandas.io.pytables',
   'C:\\Users\\onelio\\AppData\\Roaming\\Python\\Python36\\site-packages\\pandas\\io\\pytables.py',
   'PYMODULE'),
  ('pandas.core.computation.pytables',
   'C:\\Users\\onelio\\AppData\\Roaming\\Python\\Python36\\site-packages\\pandas\\core\\computation\\pytables.py',
   'PYMODULE'),
  ('pandas.io.json',
   'C:\\Users\\onelio\\AppData\\Roaming\\Python\\Python36\\site-packages\\pandas\\io\\json\\__init__.py',
   'PYMODULE'),
  ('pandas.io.json._table_schema',
   'C:\\Users\\onelio\\AppData\\Roaming\\Python\\Python36\\site-packages\\pandas\\io\\json\\_table_schema.py',
   'PYMODULE'),
  ('pandas.io.json._normalize',
   'C:\\Users\\onelio\\AppData\\Roaming\\Python\\Python36\\site-packages\\pandas\\io\\json\\_normalize.py',
   'PYMODULE'),
  ('pandas.io.json._json',
   'C:\\Users\\onelio\\AppData\\Roaming\\Python\\Python36\\site-packages\\pandas\\io\\json\\_json.py',
   'PYMODULE'),
  ('pandas.io.gcs',
   'C:\\Users\\onelio\\AppData\\Roaming\\Python\\Python36\\site-packages\\pandas\\io\\gcs.py',
   'PYMODULE'),
  ('pandas.io.formats.style',
   'C:\\Users\\onelio\\AppData\\Roaming\\Python\\Python36\\site-packages\\pandas\\io\\formats\\style.py',
   'PYMODULE'),
  ('pandas.io.formats.excel',
   'C:\\Users\\onelio\\AppData\\Roaming\\Python\\Python36\\site-packages\\pandas\\io\\formats\\excel.py',
   'PYMODULE'),
  ('pandas.io.excel',
   'C:\\Users\\onelio\\AppData\\Roaming\\Python\\Python36\\site-packages\\pandas\\io\\excel\\__init__.py',
   'PYMODULE'),
  ('pandas.io.excel._xlwt',
   'C:\\Users\\onelio\\AppData\\Roaming\\Python\\Python36\\site-packages\\pandas\\io\\excel\\_xlwt.py',
   'PYMODULE'),
  ('pandas.io.excel._xlsxwriter',
   'C:\\Users\\onelio\\AppData\\Roaming\\Python\\Python36\\site-packages\\pandas\\io\\excel\\_xlsxwriter.py',
   'PYMODULE'),
  ('pandas.io.excel._util',
   'C:\\Users\\onelio\\AppData\\Roaming\\Python\\Python36\\site-packages\\pandas\\io\\excel\\_util.py',
   'PYMODULE'),
  ('pandas.io.excel._openpyxl',
   'C:\\Users\\onelio\\AppData\\Roaming\\Python\\Python36\\site-packages\\pandas\\io\\excel\\_openpyxl.py',
   'PYMODULE'),
  ('pandas.io.excel._base',
   'C:\\Users\\onelio\\AppData\\Roaming\\Python\\Python36\\site-packages\\pandas\\io\\excel\\_base.py',
   'PYMODULE'),
  ('pandas.io.excel._xlrd',
   'C:\\Users\\onelio\\AppData\\Roaming\\Python\\Python36\\site-packages\\pandas\\io\\excel\\_xlrd.py',
   'PYMODULE'),
  ('pandas.io.excel._odfreader',
   'C:\\Users\\onelio\\AppData\\Roaming\\Python\\Python36\\site-packages\\pandas\\io\\excel\\_odfreader.py',
   'PYMODULE'),
  ('pandas.io.formats.css',
   'C:\\Users\\onelio\\AppData\\Roaming\\Python\\Python36\\site-packages\\pandas\\io\\formats\\css.py',
   'PYMODULE'),
  ('numpy.ma.mrecords',
   'C:\\Users\\onelio\\AppData\\Roaming\\Python\\Python36\\site-packages\\numpy\\ma\\mrecords.py',
   'PYMODULE'),
  ('pandas.plotting',
   'C:\\Users\\onelio\\AppData\\Roaming\\Python\\Python36\\site-packages\\pandas\\plotting\\__init__.py',
   'PYMODULE'),
  ('pandas.plotting._misc',
   'C:\\Users\\onelio\\AppData\\Roaming\\Python\\Python36\\site-packages\\pandas\\plotting\\_misc.py',
   'PYMODULE'),
  ('pandas.plotting._core',
   'C:\\Users\\onelio\\AppData\\Roaming\\Python\\Python36\\site-packages\\pandas\\plotting\\_core.py',
   'PYMODULE'),
  ('pandas.plotting._matplotlib',
   'C:\\Users\\onelio\\AppData\\Roaming\\Python\\Python36\\site-packages\\pandas\\plotting\\_matplotlib\\__init__.py',
   'PYMODULE'),
  ('pandas.plotting._matplotlib.tools',
   'C:\\Users\\onelio\\AppData\\Roaming\\Python\\Python36\\site-packages\\pandas\\plotting\\_matplotlib\\tools.py',
   'PYMODULE'),
  ('pandas.plotting._matplotlib.timeseries',
   'C:\\Users\\onelio\\AppData\\Roaming\\Python\\Python36\\site-packages\\pandas\\plotting\\_matplotlib\\timeseries.py',
   'PYMODULE'),
  ('pandas.plotting._matplotlib.misc',
   'C:\\Users\\onelio\\AppData\\Roaming\\Python\\Python36\\site-packages\\pandas\\plotting\\_matplotlib\\misc.py',
   'PYMODULE'),
  ('pandas.plotting._matplotlib.style',
   'C:\\Users\\onelio\\AppData\\Roaming\\Python\\Python36\\site-packages\\pandas\\plotting\\_matplotlib\\style.py',
   'PYMODULE'),
  ('pandas.plotting._matplotlib.hist',
   'C:\\Users\\onelio\\AppData\\Roaming\\Python\\Python36\\site-packages\\pandas\\plotting\\_matplotlib\\hist.py',
   'PYMODULE'),
  ('pandas.plotting._matplotlib.core',
   'C:\\Users\\onelio\\AppData\\Roaming\\Python\\Python36\\site-packages\\pandas\\plotting\\_matplotlib\\core.py',
   'PYMODULE'),
  ('pandas.plotting._matplotlib.compat',
   'C:\\Users\\onelio\\AppData\\Roaming\\Python\\Python36\\site-packages\\pandas\\plotting\\_matplotlib\\compat.py',
   'PYMODULE'),
  ('pandas.plotting._matplotlib.boxplot',
   'C:\\Users\\onelio\\AppData\\Roaming\\Python\\Python36\\site-packages\\pandas\\plotting\\_matplotlib\\boxplot.py',
   'PYMODULE'),
  ('pandas.plotting._matplotlib.converter',
   'C:\\Users\\onelio\\AppData\\Roaming\\Python\\Python36\\site-packages\\pandas\\plotting\\_matplotlib\\converter.py',
   'PYMODULE'),
  ('pandas.io.formats.console',
   'C:\\Users\\onelio\\AppData\\Roaming\\Python\\Python36\\site-packages\\pandas\\io\\formats\\console.py',
   'PYMODULE'),
  ('pandas.core.series',
   'C:\\Users\\onelio\\AppData\\Roaming\\Python\\Python36\\site-packages\\pandas\\core\\series.py',
   'PYMODULE'),
  ('pandas.core.indexes.accessors',
   'C:\\Users\\onelio\\AppData\\Roaming\\Python\\Python36\\site-packages\\pandas\\core\\indexes\\accessors.py',
   'PYMODULE'),
  ('pandas.core.ops.missing',
   'C:\\Users\\onelio\\AppData\\Roaming\\Python\\Python36\\site-packages\\pandas\\core\\ops\\missing.py',
   'PYMODULE'),
  ('pandas.core.ops.roperator',
   'C:\\Users\\onelio\\AppData\\Roaming\\Python\\Python36\\site-packages\\pandas\\core\\ops\\roperator.py',
   'PYMODULE'),
  ('pandas.core.internals.construction',
   'C:\\Users\\onelio\\AppData\\Roaming\\Python\\Python36\\site-packages\\pandas\\core\\internals\\construction.py',
   'PYMODULE'),
  ('pandas.core.indexing',
   'C:\\Users\\onelio\\AppData\\Roaming\\Python\\Python36\\site-packages\\pandas\\core\\indexing.py',
   'PYMODULE'),
  ('numpy.ma',
   'C:\\Users\\onelio\\AppData\\Roaming\\Python\\Python36\\site-packages\\numpy\\ma\\__init__.py',
   'PYMODULE'),
  ('numpy.ma.extras',
   'C:\\Users\\onelio\\AppData\\Roaming\\Python\\Python36\\site-packages\\numpy\\ma\\extras.py',
   'PYMODULE'),
  ('numpy.ma.core',
   'C:\\Users\\onelio\\AppData\\Roaming\\Python\\Python36\\site-packages\\numpy\\ma\\core.py',
   'PYMODULE'),
  ('pandas.errors',
   'C:\\Users\\onelio\\AppData\\Roaming\\Python\\Python36\\site-packages\\pandas\\errors\\__init__.py',
   'PYMODULE'),
  ('pandas.core.indexes.multi',
   'C:\\Users\\onelio\\AppData\\Roaming\\Python\\Python36\\site-packages\\pandas\\core\\indexes\\multi.py',
   'PYMODULE'),
  ('pandas.core.indexes.numeric',
   'C:\\Users\\onelio\\AppData\\Roaming\\Python\\Python36\\site-packages\\pandas\\core\\indexes\\numeric.py',
   'PYMODULE'),
  ('pandas.core.indexes.interval',
   'C:\\Users\\onelio\\AppData\\Roaming\\Python\\Python36\\site-packages\\pandas\\core\\indexes\\interval.py',
   'PYMODULE'),
  ('pandas.util._exceptions',
   'C:\\Users\\onelio\\AppData\\Roaming\\Python\\Python36\\site-packages\\pandas\\util\\_exceptions.py',
   'PYMODULE'),
  ('pandas.core.indexes.category',
   'C:\\Users\\onelio\\AppData\\Roaming\\Python\\Python36\\site-packages\\pandas\\core\\indexes\\category.py',
   'PYMODULE'),
  ('pandas.core.indexes.range',
   'C:\\Users\\onelio\\AppData\\Roaming\\Python\\Python36\\site-packages\\pandas\\core\\indexes\\range.py',
   'PYMODULE'),
  ('pandas.core.indexes.period',
   'C:\\Users\\onelio\\AppData\\Roaming\\Python\\Python36\\site-packages\\pandas\\core\\indexes\\period.py',
   'PYMODULE'),
  ('pandas.core.strings',
   'C:\\Users\\onelio\\AppData\\Roaming\\Python\\Python36\\site-packages\\pandas\\core\\strings.py',
   'PYMODULE'),
  ('pandas.core.sorting',
   'C:\\Users\\onelio\\AppData\\Roaming\\Python\\Python36\\site-packages\\pandas\\core\\sorting.py',
   'PYMODULE'),
  ('pandas.core.indexes.frozen',
   'C:\\Users\\onelio\\AppData\\Roaming\\Python\\Python36\\site-packages\\pandas\\core\\indexes\\frozen.py',
   'PYMODULE'),
  ('pandas.core.accessor',
   'C:\\Users\\onelio\\AppData\\Roaming\\Python\\Python36\\site-packages\\pandas\\core\\accessor.py',
   'PYMODULE'),
  ('pandas.core.indexes',
   'C:\\Users\\onelio\\AppData\\Roaming\\Python\\Python36\\site-packages\\pandas\\core\\indexes\\__init__.py',
   'PYMODULE'),
  ('pandas.compat.numpy.function',
   'C:\\Users\\onelio\\AppData\\Roaming\\Python\\Python36\\site-packages\\pandas\\compat\\numpy\\function.py',
   'PYMODULE'),
  ('pandas.core.generic',
   'C:\\Users\\onelio\\AppData\\Roaming\\Python\\Python36\\site-packages\\pandas\\core\\generic.py',
   'PYMODULE'),
  ('pandas.io.formats.csvs',
   'C:\\Users\\onelio\\AppData\\Roaming\\Python\\Python36\\site-packages\\pandas\\io\\formats\\csvs.py',
   'PYMODULE'),
  ('pandas.core.reshape',
   'C:\\Users\\onelio\\AppData\\Roaming\\Python\\Python36\\site-packages\\pandas\\core\\reshape\\__init__.py',
   'PYMODULE'),
  ('pandas.core.dtypes.concat',
   'C:\\Users\\onelio\\AppData\\Roaming\\Python\\Python36\\site-packages\\pandas\\core\\dtypes\\concat.py',
   'PYMODULE'),
  ('pandas.io.formats.printing',
   'C:\\Users\\onelio\\AppData\\Roaming\\Python\\Python36\\site-packages\\pandas\\io\\formats\\printing.py',
   'PYMODULE'),
  ('pandas.io.common',
   'C:\\Users\\onelio\\AppData\\Roaming\\Python\\Python36\\site-packages\\pandas\\io\\common.py',
   'PYMODULE'),
  ('pandas.core.indexes.datetimes',
   'C:\\Users\\onelio\\AppData\\Roaming\\Python\\Python36\\site-packages\\pandas\\core\\indexes\\datetimes.py',
   'PYMODULE'),
  ('pandas.core.index',
   'C:\\Users\\onelio\\AppData\\Roaming\\Python\\Python36\\site-packages\\pandas\\core\\index.py',
   'PYMODULE'),
  ('pandas.core.indexes.api',
   'C:\\Users\\onelio\\AppData\\Roaming\\Python\\Python36\\site-packages\\pandas\\core\\indexes\\api.py',
   'PYMODULE'),
  ('pandas.io.formats',
   'C:\\Users\\onelio\\AppData\\Roaming\\Python\\Python36\\site-packages\\pandas\\io\\formats\\__init__.py',
   'PYMODULE'),
  ('pandas.core.base',
   'C:\\Users\\onelio\\AppData\\Roaming\\Python\\Python36\\site-packages\\pandas\\core\\base.py',
   'PYMODULE'),
  ('pandas._config.config',
   'C:\\Users\\onelio\\AppData\\Roaming\\Python\\Python36\\site-packages\\pandas\\_config\\config.py',
   'PYMODULE'),
  ('pandas.tseries.frequencies',
   'C:\\Users\\onelio\\AppData\\Roaming\\Python\\Python36\\site-packages\\pandas\\tseries\\frequencies.py',
   'PYMODULE'),
  ('pytz',
   'C:\\Users\\onelio\\AppData\\Roaming\\Python\\Python36\\site-packages\\pytz\\__init__.py',
   'PYMODULE'),
  ('pytz.tzfile',
   'C:\\Users\\onelio\\AppData\\Roaming\\Python\\Python36\\site-packages\\pytz\\tzfile.py',
   'PYMODULE'),
  ('pytz.tzinfo',
   'C:\\Users\\onelio\\AppData\\Roaming\\Python\\Python36\\site-packages\\pytz\\tzinfo.py',
   'PYMODULE'),
  ('pytz.lazy',
   'C:\\Users\\onelio\\AppData\\Roaming\\Python\\Python36\\site-packages\\pytz\\lazy.py',
   'PYMODULE'),
  ('pytz.exceptions',
   'C:\\Users\\onelio\\AppData\\Roaming\\Python\\Python36\\site-packages\\pytz\\exceptions.py',
   'PYMODULE'),
  ('pandas.core.common',
   'C:\\Users\\onelio\\AppData\\Roaming\\Python\\Python36\\site-packages\\pandas\\core\\common.py',
   'PYMODULE'),
  ('pandas.core.algorithms',
   'C:\\Users\\onelio\\AppData\\Roaming\\Python\\Python36\\site-packages\\pandas\\core\\algorithms.py',
   'PYMODULE'),
  ('pandas.core.ops',
   'C:\\Users\\onelio\\AppData\\Roaming\\Python\\Python36\\site-packages\\pandas\\core\\ops\\__init__.py',
   'PYMODULE'),
  ('pandas.core.ops.docstrings',
   'C:\\Users\\onelio\\AppData\\Roaming\\Python\\Python36\\site-packages\\pandas\\core\\ops\\docstrings.py',
   'PYMODULE'),
  ('pandas.core.dtypes.missing',
   'C:\\Users\\onelio\\AppData\\Roaming\\Python\\Python36\\site-packages\\pandas\\core\\dtypes\\missing.py',
   'PYMODULE'),
  ('pandas.core.dtypes.generic',
   'C:\\Users\\onelio\\AppData\\Roaming\\Python\\Python36\\site-packages\\pandas\\core\\dtypes\\generic.py',
   'PYMODULE'),
  ('pandas.core.dtypes.dtypes',
   'C:\\Users\\onelio\\AppData\\Roaming\\Python\\Python36\\site-packages\\pandas\\core\\dtypes\\dtypes.py',
   'PYMODULE'),
  ('pandas.core.dtypes.base',
   'C:\\Users\\onelio\\AppData\\Roaming\\Python\\Python36\\site-packages\\pandas\\core\\dtypes\\base.py',
   'PYMODULE'),
  ('pandas.core.dtypes.common',
   'C:\\Users\\onelio\\AppData\\Roaming\\Python\\Python36\\site-packages\\pandas\\core\\dtypes\\common.py',
   'PYMODULE'),
  ('pandas.util._decorators',
   'C:\\Users\\onelio\\AppData\\Roaming\\Python\\Python36\\site-packages\\pandas\\util\\_decorators.py',
   'PYMODULE'),
  ('pandas.compat',
   'C:\\Users\\onelio\\AppData\\Roaming\\Python\\Python36\\site-packages\\pandas\\compat\\__init__.py',
   'PYMODULE'),
  ('numpy',
   'C:\\Users\\onelio\\AppData\\Roaming\\Python\\Python36\\site-packages\\numpy\\__init__.py',
   'PYMODULE'),
  ('numpy.ctypeslib',
   'C:\\Users\\onelio\\AppData\\Roaming\\Python\\Python36\\site-packages\\numpy\\ctypeslib.py',
   'PYMODULE'),
  ('numpy.random',
   'C:\\Users\\onelio\\AppData\\Roaming\\Python\\Python36\\site-packages\\numpy\\random\\__init__.py',
   'PYMODULE'),
  ('numpy.random._pickle',
   'C:\\Users\\onelio\\AppData\\Roaming\\Python\\Python36\\site-packages\\numpy\\random\\_pickle.py',
   'PYMODULE'),
  ('numpy.polynomial',
   'C:\\Users\\onelio\\AppData\\Roaming\\Python\\Python36\\site-packages\\numpy\\polynomial\\__init__.py',
   'PYMODULE'),
  ('numpy.polynomial.laguerre',
   'C:\\Users\\onelio\\AppData\\Roaming\\Python\\Python36\\site-packages\\numpy\\polynomial\\laguerre.py',
   'PYMODULE'),
  ('numpy.polynomial._polybase',
   'C:\\Users\\onelio\\AppData\\Roaming\\Python\\Python36\\site-packages\\numpy\\polynomial\\_polybase.py',
   'PYMODULE'),
  ('numpy.polynomial.hermite_e',
   'C:\\Users\\onelio\\AppData\\Roaming\\Python\\Python36\\site-packages\\numpy\\polynomial\\hermite_e.py',
   'PYMODULE'),
  ('numpy.polynomial.hermite',
   'C:\\Users\\onelio\\AppData\\Roaming\\Python\\Python36\\site-packages\\numpy\\polynomial\\hermite.py',
   'PYMODULE'),
  ('numpy.polynomial.legendre',
   'C:\\Users\\onelio\\AppData\\Roaming\\Python\\Python36\\site-packages\\numpy\\polynomial\\legendre.py',
   'PYMODULE'),
  ('numpy.polynomial.chebyshev',
   'C:\\Users\\onelio\\AppData\\Roaming\\Python\\Python36\\site-packages\\numpy\\polynomial\\chebyshev.py',
   'PYMODULE'),
  ('numpy.polynomial.polynomial',
   'C:\\Users\\onelio\\AppData\\Roaming\\Python\\Python36\\site-packages\\numpy\\polynomial\\polynomial.py',
   'PYMODULE'),
  ('numpy.polynomial.polyutils',
   'C:\\Users\\onelio\\AppData\\Roaming\\Python\\Python36\\site-packages\\numpy\\polynomial\\polyutils.py',
   'PYMODULE'),
  ('numpy._distributor_init',
   'C:\\Users\\onelio\\AppData\\Roaming\\Python\\Python36\\site-packages\\numpy\\_distributor_init.py',
   'PYMODULE'),
  ('numpy.__config__',
   'C:\\Users\\onelio\\AppData\\Roaming\\Python\\Python36\\site-packages\\numpy\\__config__.py',
   'PYMODULE'),
  ('typing', 'c:\\python36\\lib\\typing.py', 'PYMODULE'),
  ('pandas.core.arrays.sparse',
   'C:\\Users\\onelio\\AppData\\Roaming\\Python\\Python36\\site-packages\\pandas\\core\\arrays\\sparse.py',
   'PYMODULE'),
  ('pandas.core.arrays.period',
   'C:\\Users\\onelio\\AppData\\Roaming\\Python\\Python36\\site-packages\\pandas\\core\\arrays\\period.py',
   'PYMODULE'),
  ('pandas.core.arrays.numpy_',
   'C:\\Users\\onelio\\AppData\\Roaming\\Python\\Python36\\site-packages\\pandas\\core\\arrays\\numpy_.py',
   'PYMODULE'),
  ('pandas.core.arrays.interval',
   'C:\\Users\\onelio\\AppData\\Roaming\\Python\\Python36\\site-packages\\pandas\\core\\arrays\\interval.py',
   'PYMODULE'),
  ('pandas.core.arrays.integer',
   'C:\\Users\\onelio\\AppData\\Roaming\\Python\\Python36\\site-packages\\pandas\\core\\arrays\\integer.py',
   'PYMODULE'),
  ('pandas.core.arrays.datetimes',
   'C:\\Users\\onelio\\AppData\\Roaming\\Python\\Python36\\site-packages\\pandas\\core\\arrays\\datetimes.py',
   'PYMODULE'),
  ('pandas.core.arrays._ranges',
   'C:\\Users\\onelio\\AppData\\Roaming\\Python\\Python36\\site-packages\\pandas\\core\\arrays\\_ranges.py',
   'PYMODULE'),
  ('pandas.core.arrays.categorical',
   'C:\\Users\\onelio\\AppData\\Roaming\\Python\\Python36\\site-packages\\pandas\\core\\arrays\\categorical.py',
   'PYMODULE'),
  ('pandas.core.arrays.base',
   'C:\\Users\\onelio\\AppData\\Roaming\\Python\\Python36\\site-packages\\pandas\\core\\arrays\\base.py',
   'PYMODULE'),
  ('pandas.core.arrays.array_',
   'C:\\Users\\onelio\\AppData\\Roaming\\Python\\Python36\\site-packages\\pandas\\core\\arrays\\array_.py',
   'PYMODULE'),
  ('pandas.core.arrays.datetimelike',
   'C:\\Users\\onelio\\AppData\\Roaming\\Python\\Python36\\site-packages\\pandas\\core\\arrays\\datetimelike.py',
   'PYMODULE'),
  ('pandas.core',
   'C:\\Users\\onelio\\AppData\\Roaming\\Python\\Python36\\site-packages\\pandas\\core\\__init__.py',
   'PYMODULE'),
  ('pandas.testing',
   'C:\\Users\\onelio\\AppData\\Roaming\\Python\\Python36\\site-packages\\pandas\\testing.py',
   'PYMODULE'),
  ('pandas.util.testing',
   'C:\\Users\\onelio\\AppData\\Roaming\\Python\\Python36\\site-packages\\pandas\\util\\testing.py',
   'PYMODULE'),
  ('pandas._config.localization',
   'C:\\Users\\onelio\\AppData\\Roaming\\Python\\Python36\\site-packages\\pandas\\_config\\localization.py',
   'PYMODULE'),
  ('pandas.util._tester',
   'C:\\Users\\onelio\\AppData\\Roaming\\Python\\Python36\\site-packages\\pandas\\util\\_tester.py',
   'PYMODULE'),
  ('pandas.io.api',
   'C:\\Users\\onelio\\AppData\\Roaming\\Python\\Python36\\site-packages\\pandas\\io\\api.py',
   'PYMODULE'),
  ('pandas.io.spss',
   'C:\\Users\\onelio\\AppData\\Roaming\\Python\\Python36\\site-packages\\pandas\\io\\spss.py',
   'PYMODULE'),
  ('pandas.io.sas',
   'C:\\Users\\onelio\\AppData\\Roaming\\Python\\Python36\\site-packages\\pandas\\io\\sas\\__init__.py',
   'PYMODULE'),
  ('pandas.io.sas.sasreader',
   'C:\\Users\\onelio\\AppData\\Roaming\\Python\\Python36\\site-packages\\pandas\\io\\sas\\sasreader.py',
   'PYMODULE'),
  ('pandas.io.sas.sas7bdat',
   'C:\\Users\\onelio\\AppData\\Roaming\\Python\\Python36\\site-packages\\pandas\\io\\sas\\sas7bdat.py',
   'PYMODULE'),
  ('pandas.io.sas.sas_constants',
   'C:\\Users\\onelio\\AppData\\Roaming\\Python\\Python36\\site-packages\\pandas\\io\\sas\\sas_constants.py',
   'PYMODULE'),
  ('pandas.io.sas.sas_xport',
   'C:\\Users\\onelio\\AppData\\Roaming\\Python\\Python36\\site-packages\\pandas\\io\\sas\\sas_xport.py',
   'PYMODULE'),
  ('pandas.io.html',
   'C:\\Users\\onelio\\AppData\\Roaming\\Python\\Python36\\site-packages\\pandas\\io\\html.py',
   'PYMODULE'),
  ('pandas.util._print_versions',
   'C:\\Users\\onelio\\AppData\\Roaming\\Python\\Python36\\site-packages\\pandas\\util\\_print_versions.py',
   'PYMODULE'),
  ('pandas.core.reshape.api',
   'C:\\Users\\onelio\\AppData\\Roaming\\Python\\Python36\\site-packages\\pandas\\core\\reshape\\api.py',
   'PYMODULE'),
  ('pandas.core.computation.api',
   'C:\\Users\\onelio\\AppData\\Roaming\\Python\\Python36\\site-packages\\pandas\\core\\computation\\api.py',
   'PYMODULE'),
  ('pandas.tseries.offsets',
   'C:\\Users\\onelio\\AppData\\Roaming\\Python\\Python36\\site-packages\\pandas\\tseries\\offsets.py',
   'PYMODULE'),
  ('pandas.tseries',
   'C:\\Users\\onelio\\AppData\\Roaming\\Python\\Python36\\site-packages\\pandas\\tseries\\__init__.py',
   'PYMODULE'),
  ('pandas.tseries.api',
   'C:\\Users\\onelio\\AppData\\Roaming\\Python\\Python36\\site-packages\\pandas\\tseries\\api.py',
   'PYMODULE'),
  ('pandas.core.sparse.api',
   'C:\\Users\\onelio\\AppData\\Roaming\\Python\\Python36\\site-packages\\pandas\\core\\sparse\\api.py',
   'PYMODULE'),
  ('pandas.core.api',
   'C:\\Users\\onelio\\AppData\\Roaming\\Python\\Python36\\site-packages\\pandas\\core\\api.py',
   'PYMODULE'),
  ('pandas.core.config_init',
   'C:\\Users\\onelio\\AppData\\Roaming\\Python\\Python36\\site-packages\\pandas\\core\\config_init.py',
   'PYMODULE'),
  ('pandas._config',
   'C:\\Users\\onelio\\AppData\\Roaming\\Python\\Python36\\site-packages\\pandas\\_config\\__init__.py',
   'PYMODULE'),
  ('pandas._config.display',
   'C:\\Users\\onelio\\AppData\\Roaming\\Python\\Python36\\site-packages\\pandas\\_config\\display.py',
   'PYMODULE'),
  ('pandas._config.dates',
   'C:\\Users\\onelio\\AppData\\Roaming\\Python\\Python36\\site-packages\\pandas\\_config\\dates.py',
   'PYMODULE'),
  ('pandas._libs',
   'C:\\Users\\onelio\\AppData\\Roaming\\Python\\Python36\\site-packages\\pandas\\_libs\\__init__.py',
   'PYMODULE'),
  ('pandas.compat.numpy',
   'C:\\Users\\onelio\\AppData\\Roaming\\Python\\Python36\\site-packages\\pandas\\compat\\numpy\\__init__.py',
   'PYMODULE'),
  ('easygui',
   'c:\\python36\\lib\\site-packages\\easygui\\__init__.py',
   'PYMODULE'),
  ('easygui.boxes.demo',
   'c:\\python36\\lib\\site-packages\\easygui\\boxes\\demo.py',
   'PYMODULE'),
  ('easygui.boxes.utils',
   'c:\\python36\\lib\\site-packages\\easygui\\boxes\\utils.py',
   'PYMODULE'),
  ('tkinter.font', 'c:\\python36\\lib\\tkinter\\font.py', 'PYMODULE'),
  ('tkinter.filedialog',
   'c:\\python36\\lib\\tkinter\\filedialog.py',
   'PYMODULE'),
  ('tkinter.commondialog',
   'c:\\python36\\lib\\tkinter\\commondialog.py',
   'PYMODULE'),
  ('tkinter.dialog', 'c:\\python36\\lib\\tkinter\\dialog.py', 'PYMODULE'),
  ('tkinter', 'c:\\python36\\lib\\tkinter\\__init__.py', 'PYMODULE'),
  ('tkinter.constants', 'c:\\python36\\lib\\tkinter\\constants.py', 'PYMODULE'),
  ('easygui.boxes',
   'c:\\python36\\lib\\site-packages\\easygui\\boxes\\__init__.py',
   'PYMODULE'),
  ('easygui.boxes.fileboxsetup',
   'c:\\python36\\lib\\site-packages\\easygui\\boxes\\fileboxsetup.py',
   'PYMODULE'),
  ('easygui.boxes.global_state',
   'c:\\python36\\lib\\site-packages\\easygui\\boxes\\global_state.py',
   'PYMODULE'),
  ('easygui.boxes.about',
   'c:\\python36\\lib\\site-packages\\easygui\\boxes\\about.py',
   'PYMODULE'),
  ('easygui.boxes.egstore',
   'c:\\python36\\lib\\site-packages\\easygui\\boxes\\egstore.py',
   'PYMODULE'),
  ('easygui.boxes.choice_box',
   'c:\\python36\\lib\\site-packages\\easygui\\boxes\\choice_box.py',
   'PYMODULE'),
  ('easygui.boxes.base_boxes',
   'c:\\python36\\lib\\site-packages\\easygui\\boxes\\base_boxes.py',
   'PYMODULE'),
  ('easygui.boxes.multi_fillable_box',
   'c:\\python36\\lib\\site-packages\\easygui\\boxes\\multi_fillable_box.py',
   'PYMODULE'),
  ('easygui.boxes.derived_boxes',
   'c:\\python36\\lib\\site-packages\\easygui\\boxes\\derived_boxes.py',
   'PYMODULE'),
  ('easygui.boxes.fillable_box',
   'c:\\python36\\lib\\site-packages\\easygui\\boxes\\fillable_box.py',
   'PYMODULE'),
  ('easygui.boxes.text_box',
   'c:\\python36\\lib\\site-packages\\easygui\\boxes\\text_box.py',
   'PYMODULE'),
  ('easygui.boxes.filesave_box',
   'c:\\python36\\lib\\site-packages\\easygui\\boxes\\filesave_box.py',
   'PYMODULE'),
  ('easygui.boxes.fileopen_box',
   'c:\\python36\\lib\\site-packages\\easygui\\boxes\\fileopen_box.py',
   'PYMODULE'),
  ('easygui.boxes.diropen_box',
   'c:\\python36\\lib\\site-packages\\easygui\\boxes\\diropen_box.py',
   'PYMODULE'),
  ('easygui.boxes.button_box',
   'c:\\python36\\lib\\site-packages\\easygui\\boxes\\button_box.py',
   'PYMODULE'),
  ('pathlib', 'c:\\python36\\lib\\pathlib.py', 'PYMODULE'),
  ('os', 'c:\\python36\\lib\\os.py', 'PYMODULE'),
  ('argparse', 'c:\\python36\\lib\\argparse.py', 'PYMODULE')])
